<svg xmlns="http://www.w3.org/2000/svg" viewBox="-4093.092 8444 28.625 7.866">
  <defs>
    <style>
      .cls-1 {
        fill: #fff;
      }

      .cls-2 {
        fill: none;
        stroke: #fff;
      }
    </style>
  </defs>
  <g id="Group_1371" data-name="Group 1371" transform="translate(-4387 8174.162)">
    <path id="Path_4525" data-name="Path 4525" class="cls-1" d="M4.433,12l3.933,7.789H.5Z" transform="translate(281.908 278.205) rotate(-90)"/>
    <path id="Path_4526" data-name="Path 4526" class="cls-2" d="M303.762,1134.771h21.771" transform="translate(-3 -861)"/>
  </g>
</svg>
