<?xml version="1.0" encoding="utf-8"?>
<!-- Generator: Adobe Illustrator 21.0.2, SVG Export Plug-In . SVG Version: 6.00 Build 0)  -->
<svg version="1.1" id="Layer_1" xmlns="http://www.w3.org/2000/svg" xmlns:xlink="http://www.w3.org/1999/xlink" x="0px" y="0px"
	 width="28.6px" height="7.9px" viewBox="0 0 28.6 7.9" style="enable-background:new 0 0 28.6 7.9;" xml:space="preserve">
<style type="text/css">
	.st0{fill:#FFFFFF;}
	.st1{fill:none;stroke:#FFFFFF;}
</style>
<g id="Group_1371" transform="translate(-4387 8174.162)">
	<path id="Path_4525" class="st0" d="M4415.6-8170.2l-7.8,3.9v-7.9L4415.6-8170.2z"/>
	<path id="Path_4526" class="st1" d="M4408.8-8170.2H4387"/>
</g>
</svg>
