<?xml version="1.0" encoding="utf-8"?>
<!-- Generator: Adobe Illustrator 21.0.2, SVG Export Plug-In . SVG Version: 6.00 Build 0)  -->
<svg version="1.1" id="Layer_1" xmlns="http://www.w3.org/2000/svg" xmlns:xlink="http://www.w3.org/1999/xlink" x="0px" y="0px"
	 width="489px" height="465px" viewBox="0 0 489 465" style="enable-background:new 0 0 489 465;" xml:space="preserve">
<style type="text/css">
	.st0{fill:#231F20;}
	.st1{fill:#929497;}
</style>
<g>
	<g>
		<path class="st0" d="M117.4,186c0-0.2,0.1-1.1,0.3-2.7c0.2-1.6,0.4-2.8,0.6-3.4c0.2-0.4,0.4-1.1,0.6-2.1c0.2-1,0.4-1.7,0.6-2.2
			c0.2-0.6,0.6-1.7,1.1-3.2c0.5-1.5,0.8-2.5,0.8-2.9c0.4-0.4,1.1-1.7,2.2-3.8c1-2.2,1.7-3.6,2.1-4.5c0-0.2,0.2-0.7,0.8-1.4
			c0.5-0.7,1-1.3,1.4-1.7c0.4-0.4,1-1.1,1.7-2.1c0.7-1,1.2-1.6,1.4-1.8c0.2-0.2,0.5-0.6,0.9-1.1c0.4-0.5,0.7-0.9,0.9-1.1
			c0.4-0.4,1.3-1.1,2.6-2.2c1.3-1,2.2-1.7,2.6-2.2c0.4-0.2,1-0.5,1.7-0.9c0.7-0.4,1.2-0.7,1.4-0.9c0.2-0.2,0.6-0.4,1.1-0.6
			c0.5-0.2,0.9-0.4,1.1-0.6c0.2,0,0.7-0.2,1.4-0.5c0.7-0.3,1.3-0.5,1.7-0.5c0.6-0.2,1.4-0.4,2.4-0.6c1-0.2,1.6-0.3,1.8-0.3
			c0.2-0.2,1.1-0.3,2.8-0.3c1.6,0,2.9,0,4,0c0.8,0,2,0,3.7,0c1.8,0,2.7,0.1,2.7,0.3c0.4,0,1.1,0.1,2.2,0.3c1,0.2,1.7,0.4,2.1,0.6
			c0.6,0.2,1.7,0.7,3.2,1.4c1.5,0.7,2.5,1.3,2.9,1.7l3.1,3.1c0.2,0.2,0.4,0.6,0.6,1.1c0.2,0.5,0.4,0.9,0.6,1.1v0.9v1.3
			c-0.2,0.2-0.4,0.5-0.6,0.9c-0.2,0.4-0.4,0.7-0.6,0.9c-0.8,0-1.5-0.3-2.1-0.9c-0.2-0.2-0.9-0.7-2-1.5c-1.1-0.8-1.8-1.3-2-1.5
			c-0.4-0.4-1.3-1-2.6-1.8c-1.3-0.8-2.2-1.2-2.6-1.2c-0.6-0.4-1.7-0.9-3.2-1.4c-1.5-0.5-2.5-0.8-2.9-0.8h-4.3h-4.9
			c-0.4,0-1.1,0.1-2.1,0.5c-1.1,0.3-1.7,0.5-2.2,0.5l-6.1,3.1c-0.4,0.4-1.6,1.6-3.7,3.7c-2.1,2-3.6,3.6-4.6,4.6
			c-0.2,0.2-0.5,0.7-0.9,1.4c-0.4,0.7-0.8,1.3-1.2,1.7c-0.4,0.6-1,1.7-1.7,3.4c-0.7,1.6-1.2,2.6-1.4,3c0,0.2-0.2,1.1-0.8,2.8
			c-0.5,1.6-0.9,2.7-1.1,3.3c-0.2,0.4-0.6,1.7-1.2,4v9.2v9.5c0,0.2,0.2,1.1,0.5,2.6c0.3,1.5,0.6,2.7,0.8,3.5c0,0.4,0.1,1.1,0.3,2.2
			c0.2,1,0.4,1.7,0.6,2.2c0,0.2,0.2,0.7,0.5,1.4c0.3,0.7,0.5,1.3,0.5,1.7c0.4,0.4,0.8,1.3,1.2,2.6c0.4,1.3,0.7,2.2,0.9,2.6
			c0.4,0.4,1,1.4,1.7,3c0.7,1.6,1.2,2.6,1.4,3.1c0.2,0.2,0.9,1.1,2,2.7c1.1,1.6,1.9,2.8,2.3,3.4c0.4,0.4,1,1.2,1.7,2.3
			c0.7,1.1,1.2,1.7,1.4,1.7c0.4,0.4,1.1,1.2,2.1,2.3c1,1.1,2.2,2.3,3.4,3.5c1.2,1.2,2.4,2.4,3.5,3.4c1.1,1,1.9,1.7,2.3,2.1
			c0.2,0.4,1,1.1,2.3,2.1c1.3,1,2.3,1.7,2.9,2.1c0.4,0.2,1.4,0.8,2.9,1.8c1.5,1,2.6,1.8,3.2,2.1c0.4,0.4,1.3,1,2.6,1.7
			c1.3,0.7,2.2,1.2,2.6,1.4c0.6,0.4,2,1.1,4.1,2.1c2.1,1,3.4,1.7,3.8,2.1c0.6,0.2,1.4,0.5,2.4,1c1,0.4,2.1,0.8,3.2,1.2
			c1.1,0.4,2.1,0.8,3.1,1.2c0.9,0.4,1.5,0.6,1.7,0.6c0.4,0.2,1.2,0.4,2.3,0.8c1.1,0.3,2.3,0.6,3.7,0.9c1.3,0.3,2.6,0.6,3.8,0.9
			c1.2,0.3,2.1,0.5,2.7,0.5c0.6,0.2,1.9,0.5,4,0.7c2,0.3,3.4,0.5,4,0.5h5.8h5.5c0.4,0,1.6-0.1,3.5-0.5c1.9-0.3,3.2-0.6,3.8-0.7
			c0.6,0,2-0.3,4.1-0.8c2.1-0.5,3.5-0.9,4.1-1.1l9.2-3.1c0.4-0.2,1.7-0.9,3.8-2c2.1-1.1,3.6-1.9,4.4-2.3c0.6-0.4,1.5-1,2.8-1.7
			c1.2-0.7,2-1.2,2.5-1.4c0.4-0.4,1.4-1.3,3-2.6c1.6-1.3,2.7-2.2,3.1-2.6c0.2-0.2,0.7-0.7,1.5-1.4c0.8-0.7,1.6-1.4,2.3-2.1
			c0.7-0.7,1.4-1.4,2.1-2.2c0.7-0.7,1.2-1.1,1.4-1.3c0.4-0.4,1.1-1.3,2-2.6c0.9-1.3,1.6-2.2,2-2.6c0.4-0.6,1.1-1.7,2.1-3.2
			c1-1.5,1.7-2.5,2.1-2.9c0.4-0.6,1-1.7,1.7-3.3c0.7-1.7,1.2-2.7,1.4-3.1c0.4-0.8,1-2.4,1.7-4.7c0.7-2.4,1.2-3.8,1.4-4.4
			c0.2-0.4,0.4-1.5,0.6-3.4c0.2-1.8,0.3-3.1,0.3-3.7v-4.3v-4c0-0.2-0.1-1-0.3-2.3c-0.2-1.3-0.4-2.3-0.6-2.9
			c-0.2-0.4-0.4-1.1-0.6-2.2c-0.2-1-0.3-1.7-0.3-2.1c-0.4-0.6-0.9-1.7-1.4-3.4c-0.5-1.6-0.8-2.5-0.8-2.7c-0.2-0.4-0.9-1.5-2-3.4
			c-1.1-1.8-1.9-3-2.3-3.6c0-0.2-0.4-0.9-1.2-2c-0.8-1.1-1.4-1.9-1.8-2.3c-0.4-0.6-1.2-1.6-2.3-2.9c-1.1-1.3-1.7-2.1-1.7-2.3
			l-41.3-41c-0.2-0.4-1-1.4-2.3-2.9c-1.3-1.6-2.3-2.7-2.9-3.5c-0.6-0.8-1.7-2.2-3.2-4.3c-1.5-2.1-2.5-3.3-2.9-3.7
			c-0.2-0.2-0.8-1.2-1.8-3.1c-1-1.8-1.7-3.2-2.1-4.3c-0.2-0.2-0.4-0.6-0.6-1.1c-0.2-0.5-0.4-0.9-0.6-1.1c-0.2-0.6-0.6-1.6-1.1-2.8
			c-0.5-1.2-0.8-2-0.8-2.4c-0.4-1-0.9-2.5-1.4-4.4c-0.5-2-0.8-3.1-0.8-3.5c0-0.2,0-1.2-0.1-3c-0.1-1.8-0.2-3.3-0.2-4.3
			c0-1,0.1-2.6,0.2-4.7c0.1-2.2,0.1-3.3,0.1-3.5c0-0.4,0.1-1.2,0.3-2.4c0.2-1.2,0.4-2.2,0.6-2.8c0.2-0.6,0.5-1.7,1.1-3.2
			c0.5-1.6,0.9-2.5,1.1-2.9c0.4-0.6,1.1-2,2-4.1c0.9-2.1,1.6-3.5,2-4.1c0.4-0.4,1-1,1.7-2c0.7-0.9,1.2-1.6,1.4-2
			c0.4-0.4,1.1-1.1,2-2.1c0.9-1,1.9-2,2.9-3.1c1-1,1.9-1.9,2.8-2.7c0.8-0.8,1.4-1.3,1.8-1.5c0.4-0.2,1.4-0.8,2.9-1.8
			c1.5-1,2.6-1.7,3.2-2.1c0.4-0.4,1.4-1,3.1-1.7c1.6-0.7,2.6-1.1,3.1-1.4c0.8-0.4,2.3-1,4.4-1.7c2.1-0.7,3.4-1.2,3.8-1.4
			c0.2-0.2,1-0.4,2.3-0.6c1.3-0.2,2.3-0.4,2.9-0.6c0.8-0.2,2-0.4,3.5-0.6c1.5-0.2,2.4-0.3,2.6-0.3c0.4,0,1.2,0,2.3-0.1
			c1.1-0.1,2.3-0.2,3.7-0.3c1.3-0.1,2.6-0.2,3.8-0.3c1.2-0.1,2.2-0.1,2.8-0.1c0.6-0.2,1.1-0.3,1.5-0.3c0.2,0,0.5,0.1,0.8,0.1
			c0.3,0.1,0.5,0.1,0.8,0.1c1,0,2.8,0.1,5.4,0.3c2.5,0.2,4.1,0.4,4.7,0.6c0.4,0,1.2,0.1,2.4,0.3c1.2,0.2,2.2,0.4,2.8,0.6
			c0.4,0.2,1.1,0.4,2.1,0.6c1,0.2,1.7,0.4,2.1,0.6l9.2,3c0.4,0,1.1,0.3,2,0.8c0.9,0.5,1.6,0.9,2,1.1c0.8,0.4,2,1.2,3.5,2.3
			c1.5,1.1,2.5,1.8,2.9,2c0,0-14.6,0.4-15.6,0c-1-0.4-1.7-0.7-2.1-0.9c-0.4-0.2-1.2-0.5-2.5-1.1c-1.2-0.5-2.1-0.9-2.7-1.1
			c-0.2-0.2-0.7-0.4-1.4-0.6c-0.7-0.2-1.3-0.4-1.7-0.6c-1-0.2-3.3-0.8-7-1.8c-0.2,0-0.8,0-1.8-0.2c-1-0.1-2.3-0.2-3.7-0.3
			c-1.4-0.1-2.9-0.2-4.5-0.5c-1.5-0.2-2.7-0.3-3.5-0.3h-0.9h-1.2c-0.8,0.2-2.4,0.4-4.7,0.6c-2.4,0.2-3.8,0.4-4.4,0.6
			c-0.2,0-1,0.1-2.3,0.3c-1.3,0.2-2.3,0.4-2.9,0.6c-0.4,0.2-1.1,0.4-2.1,0.6c-1,0.2-1.6,0.3-1.8,0.3c-0.4,0.2-1,0.4-1.8,0.6
			c-0.8,0.2-1.2,0.4-1.2,0.6c-0.6,0.4-2,1.1-4.1,2c-2.2,0.9-3.5,1.6-4.1,2c-0.2,0.2-0.7,0.5-1.4,0.9c-0.7,0.4-1.3,0.8-1.7,1.2
			c-0.4,0.4-1.2,0.9-2.3,1.7c-1.1,0.7-1.8,1.2-2,1.4l-2.2,2.2c-0.4,0.6-1.1,1.5-2.1,2.7c-1,1.2-1.7,2-1.8,2.4
			c-0.4,0.4-1,1.4-1.7,2.9c-0.7,1.5-1.2,2.6-1.4,3.2c-0.4,0.6-0.9,1.7-1.4,3.3c-0.5,1.7-0.8,2.6-0.8,2.7v7.7v8.9
			c0,0.2,0.1,0.8,0.5,1.8c0.3,1,0.5,1.7,0.5,2.1c0.2,0.4,0.4,1,0.6,1.9c0.2,0.8,0.4,1.3,0.6,1.5c0.4,0.6,1.1,2,2.1,4.1
			c1,2.1,1.7,3.4,1.8,3.8c0.4,0.4,1.1,1.4,2.1,3.1c1,1.7,1.7,2.8,2.1,3.4c0.4,0.4,1.1,1.2,2.2,2.6c1,1.3,1.6,2.1,1.8,2.3l44.4,45.6
			c0.2,0.2,0.8,0.9,1.8,2.3c1,1.3,1.7,2.2,2.1,2.6c0.4,0.6,1.2,1.8,2.3,3.4c1.1,1.6,1.8,2.7,2,3.1c0.2,0.2,0.5,0.7,0.9,1.7
			c0.4,0.9,0.9,2,1.5,3c0.6,1.1,1.2,2.2,1.7,3.2c0.5,1,0.9,1.8,1.1,2.1c0,0.2,0.1,0.7,0.3,1.4c0.2,0.7,0.4,1.3,0.6,1.7
			c0.2,0.4,0.4,1.1,0.6,2.1c0.2,1.1,0.3,1.8,0.3,2.2c0.2,0.4,0.4,1.3,0.8,2.6c0.3,1.3,0.5,2.2,0.5,2.6c0,0.4,0.2,1.6,0.4,3.7
			c0.3,2,0.5,3.5,0.5,4.6v0.3v0.6c-0.2,1.2-0.4,3.2-0.6,5.8c-0.2,2.7-0.3,4.2-0.3,4.6c-0.2,0.4-0.4,1.2-0.6,2.4
			c-0.2,1.2-0.4,2-0.6,2.4c-0.2,1-0.7,2.7-1.4,5.1c-0.7,2.3-1.3,3.8-1.7,4.4c-0.2,0.4-0.8,1.6-1.8,3.6c-1,2.1-1.7,3.6-2.1,4.6
			c-0.4,0.4-1,1.2-1.7,2.5c-0.7,1.2-1.2,2-1.4,2.4c-0.2,0.4-0.7,1.1-1.4,2.1c-0.7,1-1.3,1.7-1.7,2.1c-0.4,0.6-1.4,1.8-3.1,3.6
			c-1.6,1.9-2.7,3-3.1,3.4l-3.4,3.4c-0.4,0.4-1.4,1.2-2.9,2.4c-1.5,1.2-2.6,2-3.2,2.5c-0.4,0.4-1.1,1-2.2,1.8
			c-1,0.8-1.6,1.3-1.8,1.5c-0.4,0.2-1.5,0.8-3.4,1.8c-1.8,1-3.1,1.7-4,2.1c-0.4,0.4-1.4,1-3.1,1.7c-1.6,0.7-2.6,1.2-3.1,1.3
			c-0.4,0.2-1.3,0.6-2.6,1.1c-1.3,0.5-2.2,0.9-2.6,1.1c-0.8,0.2-2.4,0.7-4.7,1.5c-2.3,0.8-3.8,1.3-4.4,1.5c-0.2,0-0.9,0.2-2,0.4
			c-1.1,0.3-1.9,0.5-2.3,0.5c-0.4,0.2-1.3,0.4-2.6,0.6c-1.3,0.2-2.1,0.4-2.3,0.6c-1,0.2-2.5,0.4-4.6,0.6c-2.1,0.2-3.3,0.3-3.7,0.3
			h-7.4h-7c-0.4,0-1.9-0.1-4.4-0.3c-2.6-0.2-4.2-0.4-5-0.6c-0.4-0.2-1.2-0.4-2.4-0.6c-1.2-0.2-2.2-0.4-2.8-0.6
			c-1-0.2-2.5-0.6-4.6-1.1c-2-0.5-3.3-0.8-3.7-0.8c-0.6-0.4-2-1-4.1-1.7c-2.2-0.7-3.4-1.3-3.8-1.7c-0.4-0.2-1.2-0.6-2.3-1.1
			c-1.1-0.5-2.4-1.1-3.7-1.7c-1.3-0.6-2.6-1.2-3.8-1.8c-1.2-0.6-2.2-1.1-2.8-1.5c-0.4-0.2-1.3-0.7-2.6-1.4c-1.3-0.7-2.2-1.3-2.6-1.7
			c-0.4-0.4-1.1-1-2.1-1.7c-1-0.7-1.6-1.2-1.8-1.4c-0.4-0.4-1.2-1.1-2.3-2.2c-1.1-1-2.3-2.1-3.5-3.4c-1.2-1.2-2.4-2.4-3.4-3.5
			c-1-1.1-1.7-1.9-2.1-2.3c-0.2-0.2-0.7-0.8-1.4-1.8c-0.7-1-1.3-1.7-1.7-2.1c-0.4-0.8-1.2-2-2.3-3.5c-1.1-1.5-1.8-2.5-2-2.9
			c-0.4-0.6-1.1-2-2.1-4.1c-1-2.2-1.6-3.5-1.9-4.1c-0.2-0.4-0.6-1.8-1.4-4.1c-0.7-2.3-1.3-4-1.7-5c-0.2-0.4-0.4-1.1-0.6-2
			c-0.2-0.9-0.4-1.6-0.6-2c-0.2-0.8-0.4-2.2-0.6-4c-0.2-1.8-0.3-2.9-0.3-3.4v-8.9V186z"/>
		<path class="st0" d="M156.5,228.8c0-0.2-0.2-1.1-0.5-2.7c-0.2-1.6-0.4-2.8-0.3-3.4c0.1-0.5,0.1-1.2,0-2.2c-0.1-1.1-0.1-1.8,0-2.2
			c0-0.7,0.1-1.8,0.1-3.4c0-1.6,0-2.6-0.1-3c0.3-0.5,0.6-1.9,1-4.3c0.4-2.4,0.6-4,0.8-4.9c-0.1-0.2,0.1-0.7,0.3-1.5
			c0.3-0.8,0.6-1.5,0.9-2c0.3-0.5,0.6-1.4,1-2.5c0.4-1.2,0.7-1.9,0.8-2.2c0.1-0.2,0.3-0.7,0.6-1.2c0.3-0.6,0.4-1.1,0.6-1.3
			c0.3-0.5,0.9-1.5,1.9-2.8c1-1.4,1.6-2.3,1.9-2.8c0.3-0.3,0.8-0.7,1.4-1.3c0.6-0.6,0.9-1,1.1-1.3c0.1-0.2,0.4-0.5,0.8-0.9
			c0.4-0.3,0.7-0.6,0.9-0.9c0.2,0,0.6-0.3,1.2-0.8c0.6-0.5,1.1-0.8,1.5-0.9c0.5-0.3,1.3-0.8,2.2-1.3c0.9-0.5,1.5-0.7,1.7-0.8
			c0.2-0.3,1-0.6,2.6-1.1c1.6-0.4,2.9-0.8,3.8-1.1c0.8-0.2,2-0.6,3.5-1c1.8-0.5,2.7-0.7,2.7-0.5c0.4-0.1,1.1-0.2,2.1-0.3
			c1-0.1,1.8-0.1,2.2,0c0.7,0,1.8,0.1,3.5,0.4c1.7,0.3,2.8,0.5,3.3,0.8l3.8,2.1c0.3,0.2,0.5,0.4,0.9,0.9c0.3,0.4,0.6,0.7,0.9,0.8
			l0.3,0.9l0.3,1.2c-0.1,0.2-0.3,0.6-0.3,1c-0.1,0.5-0.2,0.8-0.3,1.1c-0.8,0.2-1.6,0.1-2.3-0.3c-0.3-0.1-1-0.5-2.3-0.9
			c-1.3-0.5-2.1-0.8-2.3-0.9c-0.5-0.3-1.5-0.6-3-1c-1.5-0.4-2.5-0.6-2.8-0.5c-0.7-0.2-1.9-0.4-3.5-0.4c-1.6-0.1-2.6,0-3,0.1
			l-4.1,1.2l-4.7,1.4c-0.4,0.1-1,0.5-1.9,1.1c-0.9,0.6-1.6,0.9-1.9,1l-5,4.7c-0.3,0.5-1.1,2-2.5,4.5c-1.4,2.5-2.4,4.4-3.1,5.7
			c-0.1,0.2-0.3,0.8-0.5,1.6c-0.2,0.8-0.4,1.5-0.7,2c-0.2,0.7-0.5,1.9-0.7,3.7c-0.2,1.8-0.4,2.9-0.5,3.3c0.1,0.2,0.1,1.2,0.1,2.9
			c-0.1,1.7-0.1,2.9-0.1,3.5c-0.1,0.5-0.1,1.8-0.1,4.1l2.6,8.8l2.6,9.1c0.1,0.2,0.5,0.9,1.2,2.4c0.7,1.4,1.3,2.4,1.7,3.2
			c0.1,0.4,0.4,1,0.9,2c0.5,0.9,0.9,1.6,1.2,1.9c0.1,0.2,0.3,0.6,0.8,1.2c0.5,0.6,0.8,1.1,0.9,1.5c0.5,0.3,1.1,1,1.9,2.2
			c0.8,1.2,1.3,1.9,1.6,2.2c0.5,0.3,1.3,1.1,2.5,2.5c1.2,1.4,1.9,2.2,2.2,2.5c0.3,0.1,1.2,0.9,2.7,2.1c1.5,1.3,2.6,2.1,3.2,2.6
			c0.5,0.3,1.2,0.9,2.2,1.7c1,0.9,1.6,1.3,1.8,1.2c0.5,0.3,1.4,0.8,2.7,1.6c1.3,0.8,2.7,1.6,4.2,2.4c1.5,0.8,3,1.6,4.3,2.2
			c1.4,0.7,2.3,1.1,2.8,1.4c0.3,0.3,1.2,0.8,2.8,1.4c1.6,0.6,2.7,1,3.4,1.2c0.5,0.1,1.6,0.4,3.3,0.9c1.8,0.6,3,0.9,3.7,1.2
			c0.5,0.3,1.5,0.6,3,0.9c1.5,0.3,2.4,0.5,2.9,0.6c0.7,0.2,2.2,0.5,4.6,0.9c2.3,0.4,3.8,0.7,4.3,1c0.6,0,1.5,0.1,2.6,0.2
			c1.1,0.1,2.2,0.2,3.4,0.3c1.2,0.1,2.3,0.2,3.3,0.3c1,0.1,1.6,0.2,1.8,0.1c0.4,0.1,1.3,0.1,2.4,0.1c1.2,0,2.4-0.1,3.8-0.1
			c1.4-0.1,2.7-0.1,3.9-0.2c1.3-0.1,2.2-0.2,2.8-0.3c0.7,0.1,2-0.1,4.1-0.4c2-0.3,3.3-0.5,3.9-0.7l5.6-1.6l5.3-1.6
			c0.4-0.1,1.5-0.6,3.2-1.4c1.8-0.8,2.9-1.4,3.5-1.8c0.6-0.2,1.8-0.8,3.8-1.9c1.9-1.1,3.1-1.8,3.7-2.2l8-5.5c0.3-0.3,1.4-1.3,3.1-3
			c1.8-1.7,3-2.8,3.6-3.5c0.5-0.6,1.2-1.4,2.2-2.4c1-1,1.6-1.7,2-2c0.3-0.5,1-1.6,2.2-3.4c1.2-1.7,1.9-2.9,2.2-3.4
			c0.1-0.2,0.5-0.8,1.1-1.7c0.6-0.9,1.1-1.8,1.6-2.7c0.5-0.9,1-1.7,1.5-2.7c0.5-0.9,0.8-1.5,0.9-1.7c0.3-0.5,0.7-1.5,1.2-3
			c0.5-1.6,0.9-2.6,1.2-3.1c0.2-0.7,0.6-1.9,1.2-3.7c0.5-1.8,0.9-2.9,1.2-3.4c0.2-0.7,0.4-1.9,0.7-3.7c0.2-1.8,0.4-2.9,0.5-3.4
			c0.2-0.9,0.3-2.6,0.3-5c0-2.5,0.1-4,0.1-4.7c0.1-0.5,0-1.6-0.3-3.4c-0.3-1.8-0.6-3-0.7-3.6l-1.2-4.1l-1.1-3.8
			c0-0.2-0.4-0.9-0.9-2.1c-0.6-1.2-1-2.1-1.4-2.6c-0.3-0.3-0.7-0.9-1.2-1.9c-0.5-0.9-0.8-1.6-0.9-2c-0.6-0.5-1.3-1.4-2.3-2.8
			c-0.9-1.4-1.4-2.2-1.5-2.4c-0.3-0.3-1.3-1.2-2.9-2.7c-1.6-1.4-2.7-2.4-3.2-2.9c-0.1-0.2-0.6-0.7-1.7-1.6c-1.1-0.9-1.9-1.4-2.4-1.7
			c-0.6-0.5-1.6-1.2-3-2.2c-1.4-0.9-2.2-1.5-2.3-1.7l-51.1-27.8c-0.3-0.3-1.3-1.1-3-2.2c-1.7-1.1-3-2-3.8-2.6
			c-0.8-0.6-2.2-1.7-4.3-3.2c-2-1.5-3.3-2.4-3.8-2.7c-0.2-0.1-1.1-0.9-2.6-2.4c-1.5-1.5-2.6-2.6-3.3-3.5c-0.3-0.1-0.5-0.4-0.9-0.9
			c-0.3-0.4-0.6-0.7-0.9-0.8c-0.3-0.6-0.9-1.4-1.8-2.4c-0.8-1-1.3-1.8-1.4-2.2c-0.7-0.9-1.5-2.1-2.6-3.9c-1-1.8-1.6-2.8-1.7-3.2
			c-0.1-0.2-0.4-1.2-1-2.9c-0.6-1.7-1-3.1-1.3-4c-0.3-1-0.7-2.5-1.2-4.6c-0.5-2.1-0.8-3.2-0.8-3.4c-0.1-0.4-0.3-1.2-0.4-2.4
			c-0.2-1.2-0.2-2.2-0.2-2.8c0-0.6,0.1-1.8,0.1-3.4c0.1-1.6,0.1-2.6,0.2-3.1c0.2-0.7,0.5-2.2,0.8-4.5c0.3-2.3,0.5-3.8,0.7-4.5
			c0.3-0.5,0.6-1.3,1.1-2.4c0.4-1.1,0.7-1.8,0.8-2.3c0.3-0.5,0.7-1.4,1.3-2.6c0.6-1.3,1.2-2.5,1.9-3.8c0.7-1.3,1.3-2.4,1.9-3.4
			c0.5-1,1-1.7,1.3-2c0.3-0.3,1.1-1.1,2.3-2.6c1.2-1.4,2-2.4,2.5-3c0.3-0.5,1.1-1.3,2.5-2.4c1.4-1.2,2.2-1.9,2.6-2.2
			c0.7-0.6,1.9-1.6,3.8-2.8c1.9-1.3,2.9-2.1,3.3-2.4c0.1-0.3,0.8-0.7,2-1.2c1.2-0.6,2.1-1.1,2.6-1.4c0.7-0.4,1.8-0.9,3.2-1.5
			c1.4-0.7,2.2-1,2.4-1.1c0.4-0.1,1.1-0.4,2.2-0.8c1-0.4,2.2-0.9,3.4-1.3c1.2-0.5,2.4-0.9,3.6-1.4c1.2-0.4,2-0.7,2.6-0.9
			c0.5-0.4,1-0.6,1.4-0.7c0.2-0.1,0.5-0.1,0.8-0.1c0.3,0,0.6,0,0.8-0.1c1-0.3,2.7-0.7,5.2-1.2c2.5-0.5,4.1-0.7,4.7-0.7
			c0.4-0.1,1.2-0.2,2.4-0.4c1.2-0.2,2.2-0.2,2.8-0.2c0.4,0.1,1.2,0.1,2.2,0c1-0.1,1.8-0.1,2.2,0l9.7,0.4c0.4-0.1,1.1-0.1,2.1,0.2
			c1,0.2,1.8,0.4,2.2,0.5c0.9,0.1,2.3,0.5,4,1.2c1.8,0.7,2.9,1,3.3,1.1L315,40c0.1,0.2,0.4,0.6,1.1,1.1c0.7,0.5,1.3,0.9,1.8,1.2
			c0.1,0.2,0.3,0.5,0.7,0.9c0.4,0.4,0.7,0.7,0.7,0.9c0.6,0.7,1.4,1.7,2.3,3c0.9,1.3,1.4,2.1,1.5,2.3l1.5,5.3l1.6,5.6
			c0.1,0.2,0.1,0.7,0,1.5c-0.1,0.8-0.2,1.4-0.3,1.8c0.1,0.4,0,1.2-0.3,2.3l-3.5,6.4c-0.1,0.3-0.7,0.7-1.5,1.4
			c-0.9,0.7-1.4,1.3-1.7,1.8c-0.3,0.3-1.2,0.9-2.7,1.7l-3.2,0.9l-2.9,0.9c-0.4,0.1-1.4,0.1-3,0.1c-1.6-0.1-2.8-0.2-3.5-0.4
			c-0.5-0.1-1.1-0.2-1.9-0.4c-0.8-0.2-1.3-0.3-1.6-0.5l-0.4-1.4l-0.5-1.8l0.6-1.1l1.2-0.4l0.9-0.2l4.7,0.9c0.4,0.1,1,0.1,1.8,0.1
			c0.7,0,1.2,0,1.4-0.1l3.5-1.1l3.2-0.9c0.8-0.2,1.4-0.7,1.8-1.5l2.1-3.8c0.1-0.3,0.2-0.8,0.2-1.7c0-0.8-0.1-1.3-0.1-1.5
			c0.1-0.3,0.1-0.7,0-1.3c-0.2-0.8-0.4-1.4-0.5-1.8c-0.1-0.4-0.3-1-0.5-1.8c-0.2-0.8-0.5-1.3-0.7-1.4c-0.1-0.4-0.4-1-0.8-1.8
			c-0.5-0.8-0.8-1.4-1.2-1.7c-0.3-0.3-1-1.2-2.2-2.6c-1.1-1.4-2-2.2-2.5-2.4c-0.3-0.3-1-0.9-1.9-1.7c-1-0.8-1.7-1.3-2.2-1.6
			c-0.5-0.3-1.4-0.7-2.6-1.3c-1.2-0.6-2.1-1-2.6-1.3c-0.3-0.1-1-0.4-2.2-0.8c-1.2-0.4-2-0.7-2.5-1c-0.7-0.2-1.9-0.6-3.7-1.1
			c-1.8-0.5-2.9-1-3.4-1.2c-0.5-0.1-1.2-0.2-2.3-0.3c-1.1-0.1-1.9-0.2-2.3-0.3c-0.5-0.1-1.3-0.2-2.7-0.3c-1.3-0.1-2.3-0.2-2.9-0.3
			c-0.3-0.1-0.8-0.2-1.5-0.2c-0.7,0-1.3-0.1-1.8-0.1c-1,0.1-3.5,0.2-7.3,0.2c-0.2,0-0.8,0.2-1.8,0.4c-1,0.2-2.2,0.4-3.6,0.7
			c-1.4,0.3-2.9,0.6-4.4,0.8c-1.5,0.2-2.7,0.5-3.5,0.7l-0.9,0.2l-1.2,0.4c-0.7,0.4-2.2,1.1-4.4,1.9c-2.2,0.9-3.6,1.5-4.1,1.8
			c-0.2,0.1-0.9,0.4-2.1,1c-1.2,0.5-2.1,1-2.6,1.4c-0.3,0.3-1,0.7-1.9,1.2c-0.9,0.5-1.5,0.7-1.7,0.8c-0.3,0.3-0.9,0.7-1.6,1.1
			c-0.7,0.4-1.1,0.7-1,0.9c-0.5,0.6-1.6,1.6-3.4,3.1c-1.8,1.5-2.9,2.5-3.4,3.1c-0.1,0.2-0.5,0.7-1.1,1.3c-0.6,0.6-1,1.1-1.3,1.6
			c-0.3,0.5-0.9,1.3-1.7,2.2c-0.9,1-1.4,1.6-1.5,1.9l-1.5,2.6c-0.2,0.7-0.6,1.8-1.3,3.2c-0.6,1.5-1,2.4-1.1,2.9
			c-0.3,0.5-0.5,1.6-0.8,3.3c-0.3,1.6-0.4,2.8-0.4,3.5c-0.2,0.7-0.4,1.9-0.4,3.6c0,1.7,0,2.7,0,2.9l2.1,7.4l2.5,8.5
			c0,0.2,0.4,0.7,0.9,1.6c0.6,0.9,0.9,1.6,1.1,1.9c0.3,0.3,0.7,0.9,1.1,1.6c0.4,0.7,0.8,1.1,1,1.3c0.6,0.4,1.6,1.6,3.2,3.4
			c1.6,1.8,2.5,2.8,2.8,3.2c0.5,0.3,1.5,1,2.9,2.3c1.4,1.3,2.4,2.2,3,2.6c0.5,0.3,1.4,0.9,2.8,1.9c1.3,1,2.1,1.6,2.4,1.7l55.3,31.4
			c0.2,0.2,1.1,0.7,2.4,1.7c1.4,1,2.3,1.6,2.8,1.9c0.6,0.5,1.6,1.3,3.1,2.6c1.5,1.3,2.4,2.1,2.7,2.4c0.3,0.1,0.7,0.6,1.4,1.4
			c0.6,0.8,1.4,1.6,2.3,2.5c0.9,0.9,1.7,1.7,2.5,2.6c0.8,0.8,1.3,1.4,1.6,1.8c0,0.2,0.3,0.6,0.7,1.3c0.4,0.6,0.7,1.1,1.1,1.4
			c0.3,0.3,0.7,1,1.2,1.9c0.5,0.9,0.8,1.6,0.9,2c0.3,0.3,0.8,1.1,1.5,2.3c0.7,1.2,1.1,2,1.2,2.4c0.1,0.4,0.6,1.5,1.5,3.4
			c0.9,1.9,1.5,3.3,1.7,4.3l0.1,0.3l0.2,0.6c0.1,1.2,0.5,3.2,1,5.7c0.5,2.6,0.8,4.1,1,4.5c-0.1,0.4-0.1,1.3,0.1,2.5
			c0.1,1.2,0.2,2.1,0.1,2.5c0.1,1,0.1,2.8,0.1,5.2c0,2.5-0.2,4-0.4,4.7c-0.1,0.5-0.3,1.8-0.7,4.1c-0.4,2.2-0.7,3.9-0.8,5
			c-0.3,0.5-0.6,1.4-0.9,2.8c-0.3,1.4-0.6,2.3-0.6,2.7c-0.1,0.5-0.3,1.3-0.7,2.4c-0.4,1.2-0.7,2-1,2.5c-0.2,0.7-0.8,2.2-1.9,4.4
			c-1.1,2.2-1.7,3.6-2,4.1l-2.3,4.2c-0.3,0.5-1,1.6-2.1,3.2c-1.1,1.6-1.9,2.7-2.4,3.2c-0.3,0.5-0.8,1.3-1.5,2.4
			c-0.7,1.1-1.2,1.7-1.3,2c-0.3,0.3-1.2,1.2-2.7,2.7c-1.5,1.5-2.6,2.5-3.2,3.2c-0.3,0.5-1.1,1.3-2.5,2.5c-1.4,1.2-2.2,1.9-2.6,2.2
			c-0.3,0.3-1.1,0.9-2.2,1.7c-1.1,0.9-1.9,1.4-2.2,1.8c-0.7,0.4-2.1,1.4-4.1,2.8c-2,1.5-3.3,2.3-3.8,2.7c-0.2,0.1-0.8,0.4-1.8,1
			c-1,0.6-1.7,1-2.1,1.1c-0.3,0.3-1.1,0.7-2.3,1.3c-1.2,0.5-1.9,1-2,1.2c-0.9,0.5-2.3,1.1-4.2,1.9c-1.9,0.8-3,1.2-3.4,1.3l-7,2
			l-6.8,2c-0.4,0.1-1.8,0.4-4.3,0.9c-2.5,0.5-4.2,0.8-5,0.8c-0.5-0.1-1.3-0.1-2.5,0.1c-1.2,0.2-2.2,0.2-2.8,0.2
			c-1.1,0.1-2.6,0.1-4.7,0.2c-2.1,0.1-3.3,0.2-3.7,0.3c-0.7-0.2-2.2-0.4-4.4-0.5c-2.3-0.1-3.6-0.3-4.1-0.5c-0.4-0.1-1.3-0.2-2.5-0.4
			c-1.2-0.1-2.6-0.4-4-0.6c-1.5-0.2-2.8-0.4-4.2-0.7c-1.3-0.2-2.4-0.5-3.1-0.7c-0.5-0.1-1.4-0.3-2.9-0.6c-1.5-0.3-2.5-0.6-3-0.9
			c-0.5-0.3-1.3-0.6-2.5-1c-1.2-0.4-1.9-0.7-2.1-0.8c-0.5-0.3-1.5-0.7-2.8-1.4c-1.4-0.7-2.8-1.4-4.3-2.2c-1.5-0.8-2.9-1.6-4.2-2.4
			c-1.3-0.8-2.2-1.3-2.7-1.6c-0.3-0.1-0.9-0.6-1.8-1.4c-1-0.8-1.7-1.3-2.2-1.6c-0.6-0.7-1.7-1.6-3.2-2.7c-1.5-1.2-2.4-1.9-2.7-2.2
			c-0.6-0.5-1.6-1.6-3.2-3.3c-1.6-1.8-2.6-2.9-2.9-3.5c-0.3-0.4-1.1-1.6-2.5-3.6c-1.3-2.1-2.4-3.5-3-4.4c-0.3-0.3-0.7-0.9-1.1-1.7
			c-0.5-0.8-0.8-1.4-1.1-1.7c-0.4-0.7-1-2-1.7-3.6c-0.7-1.7-1.1-2.8-1.2-3.2l-2.5-8.5L156.5,228.8z"/>
		<path class="st0" d="M204.1,259.2c-0.1-0.2-0.5-1-1.2-2.5c-0.7-1.5-1.1-2.6-1.2-3.2c0-0.4-0.2-1.2-0.6-2.1c-0.3-1-0.5-1.7-0.6-2.2
			c-0.2-0.6-0.4-1.7-0.7-3.3c-0.4-1.6-0.6-2.5-0.8-2.9c0.1-0.5,0.1-2-0.1-4.4c-0.2-2.4-0.4-4-0.4-4.9c-0.1-0.1-0.1-0.7,0-1.6
			c0.1-0.9,0.2-1.6,0.3-2.1c0.1-0.6,0.2-1.5,0.3-2.7c0.1-1.2,0.2-2,0.2-2.3c0.1-0.3,0.2-0.7,0.2-1.4c0.1-0.6,0.2-1.1,0.2-1.4
			c0.1-0.6,0.5-1.6,1.1-3.2c0.6-1.6,1-2.6,1.1-3.2c0.3-0.4,0.6-0.9,1-1.6c0.4-0.7,0.6-1.2,0.7-1.5c0.1-0.3,0.3-0.6,0.6-1.1
			c0.3-0.4,0.5-0.8,0.6-1.1c0.2-0.1,0.5-0.5,0.9-1.1c0.5-0.6,0.9-1.1,1.2-1.3c0.4-0.5,1-1.1,1.8-1.7c0.8-0.7,1.2-1.1,1.4-1.2
			c0.1-0.3,0.8-0.8,2.2-1.7c1.4-0.8,2.5-1.5,3.4-2.1c0.7-0.4,1.7-1,3.2-1.9c1.6-0.9,2.4-1.3,2.5-1.2c0.4-0.2,1-0.5,2-0.8
			c1-0.4,1.7-0.5,2.1-0.6c0.6-0.1,1.8-0.3,3.5-0.5c1.7-0.2,2.8-0.2,3.4-0.1l4.2,1c0.3,0.1,0.6,0.3,1.1,0.6c0.4,0.3,0.8,0.5,1.1,0.6
			l0.5,0.8l0.6,1c-0.1,0.3-0.1,0.7,0,1.1c0,0.5,0,0.8-0.1,1.1c-0.7,0.4-1.5,0.5-2.3,0.3c-0.3-0.1-1.1-0.1-2.5-0.3
			c-1.4-0.1-2.2-0.2-2.5-0.3c-0.6-0.1-1.6-0.2-3.2-0.2c-1.6,0-2.5,0.1-2.9,0.3c-0.7,0-1.9,0.1-3.5,0.5c-1.6,0.4-2.5,0.7-2.9,0.8
			l-3.7,2.2l-4.2,2.5c-0.3,0.2-0.9,0.7-1.6,1.5c-0.7,0.8-1.3,1.3-1.6,1.5l-3.7,5.8c-0.1,0.6-0.6,2.2-1.3,5c-0.7,2.8-1.2,4.9-1.6,6.3
			c-0.1,0.3-0.1,0.8-0.1,1.6c0,0.8,0,1.5-0.2,2.1c0,0.7,0.1,2,0.3,3.8c0.2,1.8,0.3,2.9,0.4,3.3c0.1,0.2,0.4,1.1,0.8,2.8
			c0.4,1.6,0.7,2.8,0.8,3.4c0,0.4,0.4,1.8,1,4l4.7,7.8l4.9,8.2c0.1,0.2,0.7,0.8,1.7,2c1.1,1.2,1.9,2.1,2.5,2.6
			c0.2,0.3,0.7,0.9,1.4,1.7c0.7,0.8,1.2,1.2,1.6,1.5c0.1,0.1,0.5,0.5,1.1,1c0.6,0.4,1,0.8,1.2,1.2c0.6,0.1,1.4,0.6,2.4,1.6
			c1,0.9,1.7,1.5,2.1,1.8c0.6,0.2,1.6,0.7,3,1.8c1.5,1.1,2.4,1.7,2.7,1.9c0.3,0.1,1.3,0.5,3.1,1.4c1.8,0.8,3,1.4,3.7,1.7
			c0.5,0.1,1.4,0.5,2.6,1.1c1.2,0.6,1.9,0.8,2,0.7c0.6,0.2,1.6,0.5,3,0.9c1.5,0.4,3,0.8,4.7,1.3c1.7,0.4,3.3,0.8,4.7,1.1
			c1.5,0.3,2.5,0.5,3.1,0.7c0.4,0.2,1.4,0.5,3.1,0.7c1.7,0.2,2.9,0.3,3.6,0.4c0.5-0.1,1.6-0.1,3.5,0c1.8,0.1,3.1,0.1,3.9,0.2
			c0.6,0.1,1.6,0.1,3.1,0.1c1.5-0.1,2.5-0.1,2.9-0.2c0.7,0.1,2.3,0,4.6-0.3c2.4-0.2,3.8-0.3,4.4-0.1c0.6-0.1,1.5-0.3,2.6-0.5
			c1.1-0.2,2.2-0.4,3.4-0.6c1.2-0.2,2.3-0.4,3.3-0.5c1-0.1,1.6-0.2,1.8-0.3c0.5,0,1.2-0.2,2.4-0.5c1.1-0.3,2.3-0.7,3.6-1.1
			c1.3-0.4,2.6-0.8,3.8-1.2c1.2-0.4,2.1-0.7,2.6-1c0.6-0.1,1.9-0.6,3.8-1.4c1.9-0.8,3.1-1.3,3.6-1.6l5-3l4.7-2.8
			c0.4-0.2,1.3-1,2.8-2.2c1.5-1.3,2.5-2.1,2.9-2.6c0.5-0.3,1.6-1.2,3.2-2.8c1.6-1.5,2.6-2.6,3-3.1l6.3-7.3c0.2-0.4,1-1.6,2.3-3.7
			c1.3-2,2.1-3.5,2.6-4.2c0.3-0.7,0.8-1.6,1.5-2.9c0.7-1.2,1.1-2,1.4-2.4c0.1-0.6,0.6-1.8,1.3-3.8c0.7-2,1.2-3.3,1.3-3.8
			c0.1-0.3,0.3-0.9,0.6-2c0.3-1,0.6-2,0.9-3c0.2-1,0.5-2,0.7-2.9c0.2-1,0.4-1.6,0.5-1.9c0.1-0.6,0.3-1.6,0.4-3.3
			c0.1-1.6,0.2-2.7,0.4-3.2c0-0.7,0.1-2,0.2-3.9c0.1-1.8,0.2-3,0.3-3.6c0-0.7,0-2-0.3-3.7c-0.2-1.8-0.4-2.9-0.4-3.4
			c-0.1-0.9-0.4-2.6-1-4.9c-0.6-2.4-1-3.9-1.1-4.5c0-0.5-0.4-1.5-1.2-3.2c-0.8-1.7-1.3-2.8-1.6-3.3l-2.2-3.7l-2.1-3.4
			c-0.1-0.2-0.6-0.8-1.4-1.8c-0.8-1-1.5-1.8-2-2.2c-0.4-0.2-0.9-0.8-1.6-1.5c-0.7-0.7-1.2-1.3-1.4-1.7c-0.7-0.3-1.6-1-2.9-2.2
			c-1.3-1.2-2-1.8-2.1-2c-0.4-0.3-1.5-0.9-3.4-1.9c-1.9-1-3.2-1.7-3.9-2c-0.1-0.2-0.8-0.5-2.1-1.1c-1.3-0.5-2.2-0.9-2.7-1
			c-0.7-0.3-1.8-0.7-3.5-1.3c-1.6-0.5-2.5-0.9-2.6-1.1l-56.5-14c-0.4-0.3-1.5-0.7-3.5-1.3c-1.9-0.6-3.3-1.1-4.3-1.5
			c-1-0.4-2.6-1.1-5-2c-2.4-1-3.8-1.6-4.4-1.7c-0.3-0.1-1.3-0.7-3.1-1.7c-1.8-1.1-3.2-1.9-4-2.6c-0.3-0.1-0.6-0.3-1.1-0.6
			c-0.4-0.3-0.8-0.5-1.1-0.6c-0.5-0.4-1.3-1-2.3-1.8c-1.1-0.8-1.7-1.4-1.9-1.7c-0.9-0.7-2-1.7-3.5-3.1c-1.4-1.4-2.2-2.3-2.5-2.6
			c-0.1-0.2-0.7-1-1.7-2.6c-1-1.5-1.8-2.7-2.3-3.6c-0.5-0.9-1.3-2.2-2.3-4.1c-1-1.9-1.6-2.9-1.7-3.1c-0.2-0.3-0.5-1.1-1-2.3
			c-0.5-1.1-0.8-2-0.9-2.7c-0.1-0.6-0.4-1.7-0.7-3.3c-0.4-1.6-0.5-2.6-0.6-3c0-0.7-0.1-2.3-0.4-4.6c-0.3-2.3-0.5-3.8-0.4-4.6
			c0.1-0.5,0.3-1.4,0.4-2.6c0.1-1.1,0.2-1.9,0.1-2.4c0.2-0.5,0.3-1.5,0.6-2.8c0.3-1.4,0.5-2.7,0.9-4.1c0.4-1.4,0.7-2.7,0.9-3.8
			c0.3-1.1,0.5-1.9,0.8-2.3c0.2-0.4,0.8-1.4,1.6-3.1c0.8-1.7,1.3-2.8,1.6-3.5c0.2-0.6,0.7-1.6,1.8-3c1-1.4,1.7-2.4,1.9-2.7
			c0.5-0.8,1.5-2,2.9-3.7c1.5-1.7,2.3-2.8,2.6-3.2c0.1-0.3,0.6-0.8,1.7-1.7c1-0.9,1.8-1.5,2.2-2c0.6-0.6,1.5-1.4,2.7-2.3
			c1.2-0.9,1.9-1.5,2.1-1.6c0.4-0.2,1-0.6,1.9-1.3c0.9-0.7,1.9-1.4,3-2.2c1.1-0.8,2.1-1.5,3.1-2.2c1-0.7,1.7-1.2,2.3-1.6
			c0.4-0.5,0.8-0.8,1.2-1.1c0.2-0.1,0.4-0.2,0.8-0.3c0.3-0.1,0.5-0.1,0.7-0.2c0.9-0.5,2.5-1.4,4.7-2.5c2.3-1.1,3.8-1.7,4.4-1.9
			c0.3-0.2,1.1-0.5,2.3-1c1.1-0.5,2-0.8,2.7-0.9c0.4,0,1.2-0.2,2.1-0.6c1-0.4,1.7-0.6,2.2-0.6l9.4-2.1c0.3-0.2,1.1-0.3,2.1-0.3
			c1.1,0,1.8,0,2.3-0.1c0.9-0.1,2.3,0,4.2,0.2c1.9,0.2,3.1,0.3,3.5,0.2l12.6,3.2c0.1,0.2,0.6,0.4,1.4,0.8c0.8,0.4,1.5,0.6,2,0.7
			c0.1,0.2,0.4,0.4,0.9,0.7c0.5,0.3,0.8,0.5,0.9,0.7c0.8,0.5,1.8,1.3,3,2.3c1.2,1.1,1.9,1.7,2,1.8l2.8,4.7l3,5
			c0.1,0.1,0.2,0.6,0.3,1.4c0.1,0.8,0.2,1.4,0.2,1.8c0.2,0.3,0.3,1.1,0.3,2.3l-1.8,7.1c-0.1,0.3-0.4,0.9-1.1,1.8
			c-0.7,0.9-1.1,1.6-1.2,2.2c-0.2,0.4-1,1.2-2.2,2.4l-2.9,1.7l-2.6,1.6c-0.4,0.2-1.3,0.5-2.9,0.9c-1.6,0.3-2.7,0.5-3.5,0.5
			c-0.5,0-3.6,0.9-4.4,0.9c-0.8,0-1.4-0.1-1.7-0.1l-0.8-1.3l-0.9-1.6l0.3-1.2l1.1-0.6l3.2-0.5l4.7-0.4c0.5,0,1.1-0.1,1.8-0.3
			c0.7-0.2,1.2-0.4,1.3-0.5l3.2-1.9l2.9-2.5c0.7-0.4,1.2-1.1,1.4-1.9l1.1-4.2c0.1-0.3,0-0.8-0.3-1.6c-0.2-0.8-0.4-1.3-0.5-1.5
			c0.1-0.3-0.1-0.7-0.4-1.2c-0.4-0.7-0.7-1.2-0.9-1.5c-0.2-0.4-0.5-0.9-1-1.6c-0.4-0.7-0.8-1.1-1-1.2c-0.2-0.3-0.6-0.9-1.3-1.5
			c-0.6-0.7-1.2-1.1-1.5-1.4c-0.4-0.2-1.3-0.9-2.8-1.9c-1.5-1-2.5-1.6-3-1.8c-0.4-0.3-1.1-0.6-2.3-1.1c-1.1-0.5-2-0.8-2.5-1
			c-0.6-0.2-1.5-0.3-2.9-0.6c-1.3-0.3-2.3-0.5-2.8-0.6c-0.3-0.1-1.1-0.1-2.3-0.2c-1.2-0.1-2.1-0.2-2.7-0.4c-0.7,0-2-0.1-3.8-0.2
			c-1.8-0.1-3-0.2-3.6-0.3c-0.5,0-1.2,0.1-2.3,0.3c-1.1,0.2-1.9,0.3-2.3,0.3c-0.5,0.1-1.3,0.1-2.6,0.3c-1.3,0.2-2.3,0.4-2.9,0.5
			c-0.3-0.1-0.8-0.1-1.5,0.2c-0.7,0.2-1.3,0.3-1.8,0.3c-1,0.3-3.3,1-7,2.1c-0.2,0.1-0.7,0.3-1.6,0.8c-0.9,0.4-2,1-3.3,1.6
			c-1.3,0.6-2.6,1.3-4,1.9c-1.4,0.6-2.5,1.1-3.2,1.5l-0.8,0.5l-1.1,0.6c-0.6,0.6-1.9,1.6-3.7,3c-1.9,1.4-3.1,2.3-3.5,2.8
			c-0.2,0.1-0.8,0.6-1.8,1.4c-1,0.9-1.8,1.5-2.2,2c-0.2,0.4-0.8,0.9-1.5,1.6c-0.8,0.7-1.3,1.1-1.4,1.2c-0.2,0.4-0.7,0.9-1.3,1.5
			c-0.6,0.6-0.8,1-0.7,1.1c-0.3,0.7-1.2,1.9-2.5,3.8c-1.4,1.9-2.2,3.2-2.5,3.8c0,0.3-0.3,0.8-0.7,1.5c-0.4,0.7-0.7,1.3-0.8,1.9
			c-0.1,0.5-0.5,1.4-1.1,2.6c-0.6,1.2-0.9,1.9-1,2.2l-0.7,2.9c0,0.7-0.2,1.9-0.4,3.5c-0.2,1.5-0.4,2.6-0.3,3
			c-0.1,0.6-0.1,1.7,0.1,3.4c0.2,1.7,0.3,2.8,0.5,3.5c0,0.7,0.1,1.9,0.5,3.6c0.4,1.7,0.7,2.6,0.8,2.7l3.9,6.6l4.6,7.6
			c0.1,0.2,0.5,0.7,1.3,1.4c0.8,0.7,1.3,1.2,1.5,1.6c0.4,0.3,0.9,0.7,1.5,1.3c0.6,0.6,1,0.9,1.3,1c0.7,0.3,2,1.1,3.9,2.5
			c2,1.3,3.2,2.1,3.6,2.3c0.5,0.1,1.7,0.6,3.4,1.5c1.7,0.9,2.9,1.5,3.6,1.8c0.6,0.2,1.6,0.5,3.2,1.1c1.6,0.6,2.5,1,2.8,1.1
			l61.5,16.3c0.3,0.1,1.2,0.4,2.7,1.1c1.6,0.6,2.6,1,3.2,1.1c0.7,0.3,1.9,0.9,3.7,1.7c1.8,0.8,2.9,1.4,3.3,1.6
			c0.3,0.1,0.8,0.4,1.7,0.9c0.8,0.6,1.8,1.2,2.9,1.8c1.1,0.7,2.1,1.3,3.1,1.9c1,0.6,1.6,1.1,2,1.3c0.1,0.2,0.4,0.5,1,1
			c0.6,0.5,1,0.9,1.4,1.1c0.4,0.3,0.9,0.8,1.6,1.5c0.7,0.8,1.1,1.3,1.4,1.7c0.4,0.2,1,0.9,2,1.9c0.9,1,1.5,1.7,1.7,2
			c0.2,0.4,1,1.3,2.3,2.9c1.3,1.6,2.2,2.8,2.8,3.7l0.2,0.3l0.3,0.5c0.4,1.2,1.3,2.9,2.5,5.3c1.2,2.4,1.9,3.8,2.1,4.1
			c0,0.5,0.3,1.2,0.7,2.4c0.5,1.1,0.7,2,0.7,2.4c0.3,1,0.8,2.6,1.4,5c0.6,2.4,0.9,3.9,0.8,4.7c0,0.5,0.1,1.8,0.3,4.1
			c0.2,2.3,0.3,4,0.5,5.1c-0.1,0.6-0.2,1.6-0.2,3c0,1.4,0,2.4,0.1,2.8c0,0.5,0,1.3-0.1,2.6c-0.1,1.2-0.2,2.1-0.4,2.7
			c0,0.7-0.3,2.3-0.7,4.7c-0.5,2.4-0.7,3.9-0.9,4.4l-1.2,4.6c-0.2,0.6-0.5,1.8-1.2,3.6c-0.7,1.8-1.2,3.1-1.5,3.8
			c-0.1,0.5-0.4,1.4-0.9,2.6c-0.4,1.2-0.7,2-0.8,2.3c-0.3,0.4-0.9,1.5-2,3.3c-1,1.8-1.8,3.1-2.3,3.9c-0.1,0.6-0.7,1.6-1.8,3
			c-1,1.5-1.7,2.4-1.9,2.8c-0.2,0.4-0.8,1.1-1.7,2.2c-0.9,1.1-1.4,1.9-1.7,2.3c-0.6,0.6-1.7,1.8-3.3,3.7c-1.6,1.9-2.6,3.1-3,3.6
			c-0.2,0.1-0.7,0.6-1.5,1.4c-0.8,0.9-1.4,1.4-1.7,1.6c-0.3,0.4-0.9,1-1.9,1.9c-1,0.9-1.6,1.4-1.7,1.7c-0.8,0.7-2,1.7-3.6,2.9
			c-1.7,1.2-2.6,1.9-3,2.1l-6.3,3.8l-6,3.6c-0.4,0.2-1.7,0.9-4,2c-2.3,1.1-3.9,1.8-4.7,2.1c-0.4,0-1.3,0.3-2.4,0.7
			c-1.2,0.5-2.1,0.7-2.7,0.9c-1,0.4-2.5,0.8-4.5,1.4c-2,0.6-3.2,1-3.5,1.2c-0.7,0-2.2,0.2-4.4,0.7c-2.2,0.5-3.6,0.7-4.1,0.5
			c-0.5,0-1.3,0.1-2.5,0.2c-1.2,0.1-2.6,0.3-4,0.5c-1.4,0.2-2.9,0.3-4.2,0.4c-1.4,0.1-2.4,0.2-3.2,0.1c-0.5,0.1-1.4,0.1-2.9,0.2
			c-1.5,0.1-2.5,0-3.1-0.1c-0.6-0.1-1.5-0.3-2.7-0.3c-1.3-0.1-2-0.2-2.3-0.2c-0.6-0.1-1.6-0.4-3.1-0.7c-1.5-0.3-3.1-0.7-4.8-1.1
			c-1.7-0.4-3.2-0.9-4.7-1.3c-1.5-0.4-2.5-0.7-3-0.9c-0.3-0.1-1-0.4-2.1-0.9c-1.1-0.5-2-0.8-2.5-1c-0.8-0.5-2-1.1-3.8-1.8
			c-1.7-0.7-2.8-1.2-3.2-1.5c-0.7-0.3-2-1.1-4-2.4c-2-1.3-3.2-2.2-3.7-2.6c-0.4-0.3-1.5-1.2-3.3-2.9c-1.8-1.6-3.1-2.8-4-3.5
			c-0.4-0.2-0.9-0.7-1.6-1.4c-0.6-0.7-1.2-1.1-1.6-1.4c-0.6-0.6-1.4-1.6-2.6-3.1c-1.1-1.5-1.8-2.4-2-2.8l-4.6-7.6L204.1,259.2z"/>
	</g>
	<g>
		<g>
			<path class="st1" d="M143.3,428.1c-2.2-2.3-3.3-5.3-3.3-9c0-3.6,1-7.4,3-11.1c2-3.8,4.3-7.4,7.1-10.7c2.8-3.3,5.7-6.5,8.7-9.4
				c3.1-2.9,5.7-5.4,7.9-7.4c7.1-6.4,14.2-12.3,21.3-17.8c7.1-5.5,13.5-10.2,19.3-14.3c5.8-4.1,10.7-7.4,14.8-9.9
				c4-2.5,6.6-4.2,7.8-4.9v-0.2h0.9c1.2,0,2.5,0.3,4.2,0.8c1.6,0.5,2.3,1.3,2,2.5c-2.9,3.8-5.7,7.5-8.3,11.3
				c-2.6,3.7-4.9,7.1-6.9,10.1c-2,3-3.6,5.5-4.8,7.4c-1.2,2-1.9,3.2-1.9,3.6h-0.2c-0.1,0.1-0.4,0.2-0.7,0.2h-1.5
				c-0.9,0-1.8,0-2.8-0.1c-1-0.1-1.5-0.6-1.5-1.6v-0.2c0-0.3,0.2-0.9,0.7-1.8c0.4-0.9,0.7-1.6,0.7-2.2l0.2-0.2
				c0.7-1.5,2-3.6,3.8-6.3c1.8-2.8,4.2-5.6,7.1-8.5l-0.9,0.7c-8.7,5.8-17.4,11.9-25.9,18.3c-8.5,6.3-16.9,13.1-25.2,20.2
				c-2.8,2.5-5.6,5-8.4,7.5c-2.8,2.6-5.5,5.2-7.9,7.9c-2.4,2.7-4.4,5.5-5.9,8.3c-1.5,2.8-2.3,5.7-2.3,8.6c0,3.8,1.2,6.7,3.7,8.6
				c2.5,2,5.5,3.3,9.2,4.2c3.6,0.8,7.4,1.1,11.3,0.9c3.9-0.2,7.2-0.6,10.2-1.2c2.2-0.4,4.4-1.1,6.8-2c2.3-0.9,4.4-1.7,6.3-2.6
				c1.9-0.9,3.5-1.6,4.7-2.3c1.2-0.7,1.9-1,2.1-1l0.2-0.2h-0.2c0,0.1,0.7,0.5,2.1,1.1c1.4,0.6,2.1,1.5,2.1,2.8
				c0,0.4-0.2,0.8-0.7,1.2c-0.4,0.4-0.9,0.7-1.5,1c-0.3,0.3-1,0.8-2.2,1.6c-1.2,0.8-2.8,1.6-4.8,2.5c-2,0.9-4.6,1.7-7.5,2.4
				c-3,0.7-6.4,1.1-10.4,1.1c-2.5,0-5.2-0.1-8.2-0.4c-3-0.3-5.9-0.8-8.9-1.4c-2.9-0.7-5.7-1.6-8.4-2.8
				C147.2,431.8,145,430.2,143.3,428.1z"/>
			<path class="st1" d="M208.4,418c0-1.4,0.3-2.8,0.8-4.2c-1.9,1.2-3.9,2.2-5.9,2.9c-2,0.7-3.8,1.3-5.4,1.8
				c-1.9,0.7-3.7,1.2-5.2,1.6c-0.2,0-0.4-0.2-0.8-0.5c0-0.3,0.4-0.7,1-1c3.5-1.4,7.1-3.2,10.7-5.4c3.7-2.2,6.9-4.7,9.7-7.5
				c4.5-4.5,8.2-7.7,11.1-9.5c2.9-1.8,4.8-2.7,5.9-2.7h0.3h0.3l0.5,0.5c0.3-0.3,0.8-0.5,1.4-0.5c0.6,0,1.1,0,1.4,0
				c3.3,0,5.7,1.2,7.1,3.7c1.4,2.4,2.1,4.9,2.1,7.3c0,3.8-1,7.5-2.9,11c0.5,0.4,1.4,0.6,2.5,0.7c1.1,0.1,2.3,0.1,3.5,0.1
				c2.8,0,4.9-0.3,6.4-0.8c1.5-0.5,2.3-0.8,2.5-0.8c0.7,0.4,1,0.7,1,1l-0.3,0.3l-1,0.8c-0.9,0.7-2.7,1.5-5.6,2.5
				c-2.9,1-6.3,1.4-10.3,1.4H239c-0.4,0-0.7,0-1-0.1c-0.4-0.1-0.7-0.1-1-0.1c-2.4,2.3-5.1,3.9-8.1,5c-3,1-5.8,1.6-8.6,1.6
				c-2.3,0-4.8-0.7-7.6-2C209.8,423.7,208.4,421.3,208.4,418z M217,417.2c0,0.5,0.3,1,0.8,1.4c0.5,0.4,1.7,0.7,3.7,0.7
				c1.4,0,2.8-0.1,4.2-0.3c1.4-0.2,2.7-0.7,3.9-1.6c-2.1-1.4-3.5-3.1-4.2-5.2c-0.7-2.1-1-3.8-1-5.2c-1.4,1.2-2.6,2.3-3.5,3.3
				c-1,1-1.8,2.1-2.6,3.3C217.4,414.8,217,416,217,417.2z M233,401.8c-0.7,1.4-1,3.1-1,5.2c0,0.7,0.2,1.6,0.5,2.7
				c0.3,1.1,1.2,2.3,2.6,3.5c1.4-1.4,2.4-3.1,3.1-5.1c0.7-2,1-3.9,1-5.6c0-1.4-0.5-2.8-1.4-4.2c-1-1.4-2.3-2.1-4.1-2.1
				c0,0.4,0.2,0.8,0.7,1.3c0.4,0.5,0.7,1.1,0.7,1.8c0,0.7-0.5,1.2-1.6,1.6h-0.3c0,0.2,0,0.3-0.1,0.4C233,401.5,233,401.6,233,401.8z
				"/>
			<path class="st1" d="M302.3,414.9c0-0.7,0-0.7-0.1-0.1c-0.1,0.6-0.7,1.5-1.8,2.7c-1.1,1.2-3,2.6-5.5,4.1
				c-2.5,1.5-6.1,2.7-10.9,3.8c-2.4,0.5-4.4,0.3-5.8-0.5c-1.4-0.9-2.4-1.9-3.1-3.1c-0.7-1.2-1.1-2.4-1.2-3.7
				c-0.1-1.2,0.1-2.1,0.7-2.6c-2.4,2.4-5.1,4.8-8.1,7.2c-3,2.4-6.6,3.5-11,3.5c-1.7,0-3.4-0.8-4.8-2.4c-1.5-1.6-2.2-3.4-2.2-5.5
				c0-2.8,0.8-5.7,2.5-8.8c1.7-3.1,3.5-5.8,5.6-8.2c2.3-3,5-5.8,8.1-8.6l0.3-0.3c1.2,0,2.6,0.3,4.2,0.8c1.6,0.5,2.5,1.5,2.9,2.9
				c-0.7,1.2-1.5,2.4-2.4,3.7c-0.9,1.2-1.9,2.5-3.1,3.9c-0.4,0.3-1,1.1-2,2.4c-1,1.2-2.1,2.6-3.3,4.2c-1.2,1.6-2.3,3.1-3.1,4.7
				c-0.9,1.6-1.3,2.8-1.3,3.7h0.3h1.6c1.2-0.2,2.8-0.8,4.7-2c1.9-1.1,3.9-2.6,6-4.3c2.1-1.7,4.2-3.6,6.3-5.5c2.1-1.9,4-3.7,5.8-5.5
				c1.6-1.7,2.7-3.2,3.5-4.3c0.8-1.1,1.9-2.3,3.3-3.5c0.9-0.7,2.1-0.6,3.8,0.4c1.7,1,2.5,1.8,2.5,2.5c0,0.9-0.3,1.7-0.8,2.6
				c-0.5,0.9-1,1.8-1.6,2.9c-3.5,5.6-6.1,9.5-8,11.9c-1.8,2.4-2.7,4-2.7,4.8c0.5,0.5,1.3,0.8,2.4,0.8c0.5,0,1.7-0.2,3.5-0.5
				c1.8-0.3,3.8-0.8,5.9-1.3c2.1-0.5,3.9-1.1,5.5-1.7c1.6-0.6,2.4-1.2,2.4-1.7h0.3C302,414.1,302.3,414.4,302.3,414.9z"/>
			<path class="st1" d="M314.9,417.3c-0.5,1.4,0.2,2.1,2.1,2.1c2.1,0,4.3-0.2,6.7-0.7c2.4-0.4,4.5-1,6.5-1.6c2-0.6,3.7-1.2,5-1.7
				c1.3-0.5,2-0.9,2.2-1c0.3-0.3,0.9-0.3,1.7,0.3c0.8,0.5,1,1,0.7,1.6c0,0.4-0.4,0.7-1.3,1c-0.4,0.4-0.7,0.6-1,0.8
				c-2.4,1.4-4.7,2.6-6.7,3.4c-2,0.8-4.3,1.6-6.9,2.3c-2.6,0.7-5.4,1.1-8.4,1.1h-0.8c-1,0-2.3-0.4-3.8-1.3c-1.5-0.9-2.2-2-2.2-3.4
				c0-1.9,0.4-3.8,1.3-5.8c0.9-1.9,1.7-3.8,2.6-5.8v-0.3c0.2-0.2,0.3-0.3,0.3-0.4c0-0.1,0.1-0.2,0.3-0.4c-1.2,0.9-2.8,2.1-4.8,3.7
				c-2,1.6-4,3.1-5.9,4.4c-1.9,1.4-3.7,2.4-5.2,3.1c-1.6,0.7-2.5,0.6-2.9-0.3c0-0.3,0.1-0.7,0.3-1c1-0.5,2.8-1.8,5.2-3.9
				c2.4-2.1,5.2-4.7,8.4-7.9c3.1-3.1,6.5-6.7,9.9-10.6c3.5-3.9,7-8,10.5-12.2c-6.3,0-12.5,0-18.7-0.1c-6.2-0.1-11.9-0.1-17-0.1
				c-5.1,0-9.4,0-12.8-0.1c-3.4-0.1-5.4-0.1-6.1-0.1h-0.3c-0.2-0.2-0.7-0.7-1.4-1.7c-0.8-1-1.2-2.3-1.2-4.1c0-1.2,0.2-1.9,0.7-2.1
				c0.4-0.2,1.1-0.3,2-0.5h0.3c1.2,0,2.8,0,4.6,0c1.8,0,4.8,0,8.9,0.1c4.1,0.1,9.8,0.2,17,0.4c7.2,0.2,17,0.5,29.2,1
				c3-4.2,5.8-8,8.4-11.5c2.6-3.5,4.8-6.2,6.5-8.1c0.9-1.4,1.6-2.4,2.2-2.9c0.6-0.5,1.1-1,1.4-1.3c-0.2,0,0.1,0,0.8,0.1
				c0.7,0.1,1.5,0.3,2.4,0.5c0.9,0.3,1.7,0.6,2.4,1c0.7,0.4,1,1,1,1.7c0,1-0.3,1.9-0.8,2.6c-0.9,1.2-2.2,3.1-4.1,5.8
				c-1.8,2.6-5,7-9.6,13.1c12,0.9,21,1.6,26.8,2.2c5.8,0.6,9.9,1.1,12.2,1.4c2.3,0.4,3.4,0.7,3.3,0.9c-0.1,0.3-0.1,0.5-0.1,0.7
				c-0.2,0-0.3,0.1-0.3,0.3l-0.5,0.5h-0.3c-0.4,0-4.3,0-11.8,0.1c-7.5,0.1-18.9,0.1-34.3,0.1c-1.9,1.9-4.1,4.2-6.4,7
				c-2.4,2.8-4.7,5.8-6.9,9c-2.3,3.2-4.4,6.4-6.4,9.6C317.4,411.8,315.9,414.7,314.9,417.3z"/>
			<path class="st1" d="M385.8,414.9c0-0.7,0-0.7-0.1-0.1c-0.1,0.6-0.7,1.5-1.8,2.7c-1.1,1.2-3,2.6-5.5,4.1
				c-2.5,1.5-6.1,2.7-10.9,3.8c-2.4,0.5-4.4,0.3-5.8-0.5c-1.4-0.9-2.4-1.9-3.1-3.1c-0.7-1.2-1.1-2.4-1.2-3.7
				c-0.1-1.2,0.1-2.1,0.7-2.6c-2.4,2.4-5.1,4.8-8.1,7.2c-3,2.4-6.6,3.5-11,3.5c-1.7,0-3.4-0.8-4.8-2.4c-1.5-1.6-2.2-3.4-2.2-5.5
				c0-2.8,0.8-5.7,2.5-8.8c1.7-3.1,3.5-5.8,5.6-8.2c2.3-3,5-5.8,8.1-8.6l0.3-0.3c1.2,0,2.6,0.3,4.2,0.8c1.6,0.5,2.5,1.5,2.9,2.9
				c-0.7,1.2-1.5,2.4-2.4,3.7c-0.9,1.2-1.9,2.5-3.1,3.9c-0.4,0.3-1,1.1-2,2.4c-1,1.2-2.1,2.6-3.3,4.2c-1.2,1.6-2.3,3.1-3.1,4.7
				c-0.9,1.6-1.3,2.8-1.3,3.7h0.3h1.6c1.2-0.2,2.8-0.8,4.7-2c1.9-1.1,3.9-2.6,6-4.3c2.1-1.7,4.2-3.6,6.3-5.5c2.1-1.9,4-3.7,5.8-5.5
				c1.6-1.7,2.7-3.2,3.5-4.3c0.8-1.1,1.9-2.3,3.3-3.5c0.9-0.7,2.1-0.6,3.8,0.4c1.7,1,2.5,1.8,2.5,2.5c0,0.9-0.3,1.7-0.8,2.6
				c-0.5,0.9-1,1.8-1.6,2.9c-3.5,5.6-6.1,9.5-8,11.9c-1.8,2.4-2.7,4-2.7,4.8c0.5,0.5,1.3,0.8,2.4,0.8c0.5,0,1.7-0.2,3.5-0.5
				c1.8-0.3,3.8-0.8,5.9-1.3c2.1-0.5,3.9-1.1,5.5-1.7c1.6-0.6,2.4-1.2,2.4-1.7h0.3C385.4,414.1,385.8,414.4,385.8,414.9z"/>
			<path class="st1" d="M433.9,414.9c0.5,0,0.8,0.5,0.8,1.6l-1.3,0.8c-0.5,0.4-1.6,1-3.1,2c-1.6,1-3.4,1.9-5.6,2.9
				c-2.2,1-4.6,1.8-7.2,2.6c-2.6,0.8-5.3,1.2-8.1,1.2c-1.6,0-3.4-0.5-5.5-1.4c-2.1-1-3.3-2.8-3.7-5.6c-0.4-2.3-0.2-4.1,0.5-5.5
				c0.7-1.4,1.4-2.6,2.1-3.7l0.3-0.3c0.3-0.7,0.8-1.3,1.3-1.8c0.5-0.5,1-1,1.3-1.3c-0.4-0.2-0.8-0.3-1.3-0.5c-0.5-0.2-1-0.4-1.3-0.8
				c-1.4,1.4-3.1,2.8-5.1,4.3c-2,1.5-4.1,2.9-6.3,4.2c-2.2,1.3-4.3,2.4-6.3,3.3c-2,0.9-3.6,1.4-4.8,1.6c-0.9-0.7-1.3-1.3-1.3-1.8
				l0.8-0.8c0.4-0.3,1.9-1.4,4.7-3.3c2.8-1.8,5.5-4.2,8.1-7.2c0.7-0.7,1.5-1.7,2.4-3c0.9-1.3,1.7-2.6,2.5-3.9
				c0.8-1.3,1.5-2.5,2.2-3.5c0.7-1,1.2-1.7,1.6-2.1c-0.4,0-0.1,0.1,0.7,0.3c0.8,0.2,1.7,0.4,2.7,0.7c1,0.3,2,0.6,2.9,0.9
				c0.9,0.3,1.3,0.8,1.3,1.3c0,0.9,0,1.6,0,2.2c0,0.6,0.3,1.3,0.8,2c0.3,0.2,0.6,0.3,0.7,0.3c0.1,0,0.3,0.1,0.7,0.3
				c2.6-2.6,4.1-4,4.4-4.2h0.3c0.9,0,2.1,0.6,3.8,1.7c1.7,1.1,2.5,2.1,2.5,3c0,0.9-0.7,1.8-2,2.9c-1.3,1-2.5,2.1-3.5,3.1
				c-1.4,1.4-3.1,3.1-5.1,5c-2,1.9-3.2,4-3.5,6.3c0.7,0.7,2,1,3.8,0.9c1.8-0.1,3.8-0.3,6-0.7c2.2-0.3,4.3-0.7,6.4-1.2
				c2.1-0.4,3.7-0.8,4.7-1.2c2.4-0.7,3.8-1.1,4.1-1.2C433.3,414.9,433.6,414.9,433.9,414.9z"/>
			<path class="st1" d="M471.6,415.7c-2.4,1.6-5.1,3.1-8.1,4.7c-3,1.6-6.1,2.8-9.3,3.8c-3.2,1-6.6,1.6-10.2,1.8
				c-3.6,0.3-7-0.1-10.3-1.2c-1.9-0.9-3.4-1.9-4.5-3.1c-1-1.2-1.7-3-2.1-5.2v-0.3c0-2.6,0.9-5.3,2.6-8.1c1.7-2.8,4-5.3,6.7-7.6
				c2.7-2.3,5.6-4.1,8.8-5.6c3.1-1.5,6-2.2,8.6-2.2c1.9,0,4.1,0.4,6.4,1.3c2.4,0.9,3.5,2.7,3.5,5.5c0,3-1.1,5.5-3.3,7.7
				c-2.2,2.2-4.8,4-7.8,5.4c-3.1,1.4-6.2,2.4-9.5,3.1c-3.3,0.7-6.1,1-8.4,1c0,0.7,0.5,1.3,1.6,1.7c1,0.4,2.2,0.7,3.5,0.9
				c1.3,0.2,2.6,0.3,3.9,0.4c1.3,0.1,2.3,0.1,3,0.1c3,0,6-0.3,9.2-0.9c3.1-0.6,5.9-1.3,8.4-2c2.8-0.9,4.5-1.6,5.2-2.1
				c0.7-0.5,1.1-0.8,1.3-0.8c0.7,0,1,0.3,1,0.8v0.5L471.6,415.7z M439.4,409.9c-0.3,0.3-0.9,0.9-1.7,1.6c-0.8,0.7-0.9,1-0.4,0.8
				c0.7-0.2,2-0.7,3.8-1.6c1.8-0.9,3.4-1.7,4.6-2.4l2.6-1.8c1-0.9,2.1-1.8,3.3-2.9c1.1-1,1.9-1.9,2.2-2.6c-0.3,0-1.1,0.2-2.2,0.7
				c-1.1,0.4-2.2,0.9-3.3,1.4l-1.3,0.8c-1.2,0.9-2.4,1.7-3.7,2.6C442.1,407.4,440.8,408.5,439.4,409.9z"/>
		</g>
		<g>
			<path class="st0" d="M18.6,359.3c2.3,0.9,5.8,1.7,9.4,1.7c3.9,0,5.9-1.2,5.9-3c0-1.7-1.8-2.7-6.3-4c-6.2-1.6-10.3-4.2-10.3-8.3
				c0-4.8,5.3-8.4,14.2-8.4c4.2,0,7.3,0.7,9.6,1.4l-1.9,5.1c-1.5-0.5-4.2-1.3-7.8-1.3c-3.7,0-5.4,1.2-5.4,2.7c0,1.8,2.1,2.6,6.9,4
				c6.6,1.8,9.7,4.4,9.7,8.4c0,4.7-4.8,8.7-15.1,8.7c-4.3,0-8.5-0.8-10.6-1.7L18.6,359.3z"/>
			<path class="st0" d="M56.8,337.8v16.2c0,4.8,2.4,7.3,6.8,7.3c4.4,0,6.9-2.3,6.9-7.3v-16.2h8.4v15.7c0,8.7-5.8,12.8-15.6,12.8
				c-9.4,0-15-3.9-15-12.9v-15.7H56.8z"/>
			<path class="st0" d="M93.3,358.7l-2.7,7.2h-8.8l11.4-28.1h11.1l11.6,28.1h-9.1l-2.9-7.2H93.3z M102.8,353.9l-2.3-6
				c-0.7-1.7-1.3-3.7-1.9-5.4h-0.1c-0.6,1.7-1.1,3.8-1.7,5.4l-2.2,6H102.8z"/>
			<path class="st0" d="M126.5,365.9l-12-28.1h9.3l4.6,11.9c1.3,3.3,2.4,6.5,3.3,10h0.2c0.9-3.4,2.1-6.7,3.4-9.9l4.8-12h9
				l-12.6,28.1H126.5z"/>
			<path class="st0" d="M161.5,337.8v28.1H153v-28.1H161.5z"/>
			<path class="st0" d="M169.1,359.3c2.3,0.9,5.8,1.7,9.4,1.7c3.9,0,5.9-1.2,5.9-3c0-1.7-1.8-2.7-6.3-4c-6.2-1.6-10.3-4.2-10.3-8.3
				c0-4.8,5.3-8.4,14.2-8.4c4.2,0,7.3,0.7,9.6,1.4l-1.9,5.1c-1.5-0.5-4.2-1.3-7.8-1.3c-3.7,0-5.4,1.2-5.4,2.7c0,1.8,2.1,2.6,6.9,4
				c6.6,1.8,9.7,4.4,9.7,8.4c0,4.7-4.8,8.7-15.1,8.7c-4.3,0-8.5-0.8-10.6-1.7L169.1,359.3z"/>
			<path class="st0" d="M198.8,337.8h8.5v22.7h14.9v5.3h-23.4V337.8z"/>
			<path class="st0" d="M236.2,358.7l-2.7,7.2h-8.8l11.4-28.1h11.1l11.6,28.1h-9.1l-2.9-7.2H236.2z M245.7,353.9l-2.3-6
				c-0.7-1.7-1.3-3.7-1.9-5.4h-0.1c-0.6,1.7-1.1,3.8-1.7,5.4l-2.2,6H245.7z"/>
			<path class="st0" d="M264.2,359.3c2.3,0.9,5.8,1.7,9.4,1.7c3.9,0,5.9-1.2,5.9-3c0-1.7-1.8-2.7-6.3-4c-6.2-1.6-10.3-4.2-10.3-8.3
				c0-4.8,5.3-8.4,14.2-8.4c4.2,0,7.3,0.7,9.6,1.4l-1.9,5.1c-1.5-0.5-4.2-1.3-7.8-1.3c-3.7,0-5.4,1.2-5.4,2.7c0,1.8,2.1,2.6,6.9,4
				c6.6,1.8,9.7,4.4,9.7,8.4c0,4.7-4.8,8.7-15.1,8.7c-4.3,0-8.5-0.8-10.6-1.7L264.2,359.3z"/>
			<path class="st0" d="M302.4,337.8v10.8h13.9v-10.8h8.4v28.1h-8.4v-11.7h-13.9v11.7h-8.5v-28.1H302.4z"/>
		</g>
	</g>
</g>
</svg>
