<svg xmlns="http://www.w3.org/2000/svg" viewBox="-11302.441 9383.413 136.56 115.947">
  <defs>
    <style>
      .cls-1 {
        fill: #4d4d4d;
        font-size: 25px;
        font-family: Lato-Thin, Lato;
        font-weight: 200;
      }

      .cls-2 {
        fill: none;
        stroke: #95989a;
        fill-rule: evenodd;
      }
    </style>
  </defs>
  <g id="Group_2353" data-name="Group 2353" transform="translate(-11801 6920)">
    <text id="B_curl" data-name="B curl" class="cls-1" transform="translate(510 2516)"><tspan x="0" y="25">B curl</tspan></text>
    <path id="Path_4417" data-name="Path 4417" class="cls-2" d="M232.8,8.4c-16.391,92.88-72.665,110.91-135.5,110.91l.546,4.371C138.277,124.774,222.415,114.939,232.8,8.4Z" transform="translate(401.825 2455.1)"/>
  </g>
</svg>
