<svg xmlns="http://www.w3.org/2000/svg" viewBox="-16075.068 11157.459 275.212 680.433">
  <defs>
    <style>
      .cls-1 {
        fill: #4d4d4d;
        font-size: 25px;
        font-family: Lato-Thin, Lato;
        font-weight: 200;
      }

      .cls-2 {
        fill: none;
        stroke: #95989a;
        fill-rule: evenodd;
      }
    </style>
  </defs>
  <g id="Group_10530" data-name="Group 10530" transform="translate(-16103 11131)">
    <g id="Group_10529" data-name="Group 10529">
      <text id="I_curl" data-name="I curl" class="cls-1" transform="translate(29 68.688)"><tspan x="0" y="25">I curl</tspan></text>
      <path id="Path_18902" data-name="Path 18902" class="cls-2" d="M122.59,17.5C77.9,64.955,27.286,62.582,0,61.791l.4,3.164C16.214,65.35,84.627,67.723,122.59,17.5Z" transform="translate(28.5 59.68)"/>
      <text id="J_curl" data-name="J curl" class="cls-1" transform="translate(175 69.136)"><tspan x="0" y="25">J curl</tspan></text>
      <path id="Path_18903" data-name="Path 18903" class="cls-2" d="M175.854,7.8C151.919,81.864,91.4,101.284,48.5,102.187l.452,3.613C76.5,107.155,156.435,89.542,175.854,7.8Z" transform="translate(126.773 18.812)"/>
    </g>
    <g id="Group_10526" data-name="Group 10526" transform="translate(0 11)">
      <text id="B_curl" data-name="B curl" class="cls-1" transform="translate(29 216)"><tspan x="0" y="25">B curl</tspan></text>
      <path id="Path_18904" data-name="Path 18904" class="cls-2" d="M219.89,8.4C205.06,92.434,154.146,108.746,97.3,108.746l.494,3.955C134.374,113.689,210.5,104.792,219.89,8.4Z" transform="translate(-68.8 176.1)"/>
      <text id="C_curl" data-name="C curl" class="cls-1" transform="translate(175 216.5)"><tspan x="0" y="25">C curl</tspan></text>
      <path id="Path_18905" data-name="Path 18905" class="cls-2" d="M271.854,4.4c1.639,101.622-48.626,131.672-126.754,132.764l.546,4.371C188.262,142.628,282.781,129.515,271.854,4.4Z" transform="translate(29.9 147.6)"/>
    </g>
    <g id="Group_10527" data-name="Group 10527">
      <text id="D_curl" data-name="D curl" class="cls-1" transform="translate(29 404.5)"><tspan x="0" y="25">D curl</tspan></text>
      <path id="Path_18906" data-name="Path 18906" class="cls-2" d="M246.757,1.8c86.87,69.934,7.649,151.887-51.357,146.423l.546,4.371C241.294,162.429,346.74,79.929,246.757,1.8Z" transform="translate(-151.9 340.2)"/>
      <text id="L_curl" data-name="L curl" class="cls-1" transform="translate(175 401.5)"><tspan x="0" y="25">L curl</tspan></text>
      <path id="Path_18907" data-name="Path 18907" class="cls-2" d="M358.759,4.1c-20.215,133.857-51.9,135.5-118.559,133.857l.546,4.371C303.031,145.06,344.553,140.689,358.759,4.1Z" transform="translate(-65.199 343.9)"/>
    </g>
    <g id="Group_10528" data-name="Group 10528">
      <text id="U_curl" data-name="U curl" class="cls-1" transform="translate(29 616.5)"><tspan x="0" y="25">U curl</tspan></text>
      <path id="Path_18908" data-name="Path 18908" class="cls-2" d="M300.781,0C413.33,20.215,378.909,164.453,290.4,156.8l.546,4.371C388.2,167.731,412.237,13.113,300.781,0Z" transform="translate(-242.988 545)"/>
    </g>
  </g>
</svg>
