<?xml version="1.0" encoding="utf-8"?>
<!-- Generator: Adobe Illustrator 21.0.2, SVG Export Plug-In . SVG Version: 6.00 Build 0)  -->
<svg version="1.1" id="svg-lash-length" xmlns="http://www.w3.org/2000/svg" xmlns:xlink="http://www.w3.org/1999/xlink" x="0px"
	 y="0px" width="325px" height="732px" viewBox="0 0 325 732" style="enable-background:new 0 0 325 732;" xml:space="preserve">
<style type="text/css">
	.st0{clip-path:url(#SVGID_2_);}
	.st1{fill:none;stroke:#95989A;}
	.st2{enable-background:new    ;}
	.st3{fill:#4D4D4D;}
</style>
<g>
	<defs>
		<rect id="SVGID_1_" width="325" height="732"/>
	</defs>
	<clipPath id="SVGID_2_">
		<use xlink:href="#SVGID_1_"  style="overflow:visible;"/>
	</clipPath>
	<g id="Group_10549" transform="translate(0 0.232)" class="st0">
		<path id="Path_18976" class="st1" d="M82.9,48.3c5.2,15.3,10.9,45.8-3.2,70.7l2.9,1.3C95.3,100.4,90.9,63.5,82.9,48.3z"/>
		<g class="st2">
			<path class="st3" d="M35.7,80.7c-0.2,0.2-0.4,0.5-0.5,0.7c-0.2,0.2-0.3,0.4-0.4,0.6c0.4-0.4,0.8-0.7,1.3-0.9s1-0.3,1.6-0.3
				c0.5,0,1.1,0.1,1.5,0.3c0.5,0.2,0.9,0.4,1.2,0.8c0.3,0.3,0.6,0.7,0.8,1.2s0.3,1,0.3,1.6s-0.1,1.1-0.3,1.6
				c-0.2,0.5-0.5,0.9-0.9,1.3c-0.4,0.4-0.8,0.6-1.3,0.8c-0.5,0.2-1.1,0.3-1.7,0.3c-0.6,0-1.1-0.1-1.6-0.3c-0.5-0.2-0.9-0.5-1.3-0.8
				c-0.4-0.4-0.6-0.8-0.8-1.3c-0.2-0.5-0.3-1.1-0.3-1.8c0-0.5,0.1-1.1,0.4-1.7s0.7-1.3,1.2-2.1l3.5-4.7c0.1-0.1,0.3-0.2,0.5-0.2h0.8
				L35.7,80.7z M37.2,87.9c0.5,0,1-0.1,1.4-0.2c0.4-0.2,0.8-0.4,1.1-0.7s0.5-0.6,0.7-1c0.2-0.4,0.2-0.8,0.2-1.3
				c0-0.5-0.1-0.9-0.2-1.3c-0.2-0.4-0.4-0.7-0.6-1c-0.3-0.3-0.6-0.5-1-0.6c-0.4-0.1-0.8-0.2-1.3-0.2c-0.5,0-1,0.1-1.4,0.3
				c-0.4,0.2-0.8,0.4-1.1,0.7s-0.5,0.6-0.7,1c-0.2,0.4-0.2,0.7-0.2,1.1c0,0.5,0.1,0.9,0.2,1.3c0.1,0.4,0.4,0.7,0.6,1
				c0.3,0.3,0.6,0.5,1,0.7C36.3,87.8,36.7,87.9,37.2,87.9z"/>
			<path class="st3" d="M43.9,88.5v-9h0.5c0.1,0,0.2,0.1,0.3,0.2l0.1,1.3c0.3-0.5,0.7-0.9,1.2-1.2c0.4-0.3,1-0.5,1.5-0.5
				c0.7,0,1.2,0.2,1.6,0.6s0.7,0.9,0.8,1.6c0.1-0.4,0.3-0.7,0.5-1c0.2-0.3,0.4-0.5,0.7-0.7c0.3-0.2,0.5-0.3,0.8-0.4s0.6-0.1,0.9-0.1
				c0.4,0,0.8,0.1,1.2,0.2c0.4,0.1,0.7,0.4,0.9,0.7c0.2,0.3,0.4,0.6,0.6,1.1c0.1,0.4,0.2,0.9,0.2,1.4v5.7h-0.9v-5.7
				c0-0.9-0.2-1.5-0.6-2S53.2,80,52.5,80c-0.3,0-0.6,0.1-0.9,0.2c-0.3,0.1-0.5,0.3-0.8,0.5c-0.2,0.2-0.4,0.5-0.5,0.8
				c-0.1,0.3-0.2,0.7-0.2,1.2v5.7h-0.9v-5.7c0-0.9-0.2-1.5-0.5-2S47.9,80,47.2,80c-0.5,0-0.9,0.1-1.4,0.4c-0.4,0.3-0.8,0.7-1.1,1.2
				v6.8H43.9z"/>
			<path class="st3" d="M58.4,88.5v-9h0.5c0.1,0,0.2,0.1,0.3,0.2l0.1,1.3c0.3-0.5,0.7-0.9,1.2-1.2c0.4-0.3,1-0.5,1.5-0.5
				c0.7,0,1.2,0.2,1.6,0.6s0.7,0.9,0.8,1.6c0.1-0.4,0.3-0.7,0.5-1c0.2-0.3,0.4-0.5,0.7-0.7c0.3-0.2,0.5-0.3,0.8-0.4s0.6-0.1,0.9-0.1
				c0.4,0,0.8,0.1,1.2,0.2c0.4,0.1,0.7,0.4,0.9,0.7c0.2,0.3,0.4,0.6,0.6,1.1c0.1,0.4,0.2,0.9,0.2,1.4v5.7h-0.9v-5.7
				c0-0.9-0.2-1.5-0.6-2S67.7,80,67,80c-0.3,0-0.6,0.1-0.9,0.2c-0.3,0.1-0.5,0.3-0.8,0.5c-0.2,0.2-0.4,0.5-0.5,0.8
				c-0.1,0.3-0.2,0.7-0.2,1.2v5.7h-0.9v-5.7c0-0.9-0.2-1.5-0.5-2S62.4,80,61.7,80c-0.5,0-0.9,0.1-1.4,0.4c-0.4,0.3-0.8,0.7-1.1,1.2
				v6.8H58.4z"/>
		</g>
		<path id="Path_18977" class="st1" d="M207.5,23.1c30.4,39.3,20.6,90.1-1.5,120.4l3.6,1.8C231,115.1,243.8,63.3,207.5,23.1z"/>
		<g class="st2">
			<path class="st3" d="M178.6,80.7c0.4,0.1,0.8,0.2,1.1,0.4c0.3,0.2,0.6,0.4,0.9,0.7c0.2,0.3,0.4,0.6,0.6,1
				c0.1,0.4,0.2,0.8,0.2,1.3c0,0.5-0.1,1-0.3,1.5c-0.2,0.4-0.5,0.8-0.9,1.1c-0.4,0.3-0.8,0.5-1.3,0.7s-1.1,0.2-1.7,0.2
				c-0.6,0-1.2-0.1-1.7-0.2c-0.5-0.2-0.9-0.4-1.3-0.7c-0.4-0.3-0.6-0.7-0.8-1.1c-0.2-0.4-0.3-0.9-0.3-1.5c0-0.5,0.1-0.9,0.2-1.3
				c0.1-0.4,0.3-0.7,0.6-1c0.2-0.3,0.5-0.5,0.9-0.7s0.7-0.3,1.1-0.4c-0.4-0.1-0.7-0.3-1-0.4c-0.3-0.2-0.5-0.4-0.7-0.7
				c-0.2-0.3-0.3-0.5-0.4-0.9c-0.1-0.3-0.2-0.7-0.2-1c0-0.5,0.1-0.9,0.3-1.3c0.2-0.4,0.4-0.7,0.7-1s0.7-0.5,1.2-0.7s1-0.3,1.5-0.3
				c0.6,0,1.1,0.1,1.5,0.3c0.5,0.2,0.8,0.4,1.2,0.7c0.3,0.3,0.6,0.6,0.7,1c0.2,0.4,0.3,0.8,0.3,1.3c0,0.4-0.1,0.7-0.2,1
				c-0.1,0.3-0.3,0.6-0.5,0.9s-0.4,0.5-0.7,0.7C179.3,80.5,179,80.6,178.6,80.7z M177.2,86.9c0.5,0,0.9-0.1,1.3-0.2
				c0.4-0.1,0.7-0.3,1-0.6s0.5-0.5,0.7-0.9s0.2-0.7,0.2-1.2c0-0.6-0.1-1-0.3-1.4s-0.5-0.7-0.8-0.9c-0.3-0.2-0.7-0.4-1.1-0.5
				c-0.4-0.1-0.8-0.1-1.1-0.1c-0.4,0-0.7,0-1.1,0.1c-0.4,0.1-0.7,0.3-1.1,0.5c-0.3,0.2-0.6,0.5-0.8,0.9c-0.2,0.4-0.3,0.8-0.3,1.4
				c0,0.4,0.1,0.8,0.2,1.2c0.2,0.3,0.4,0.6,0.7,0.9s0.6,0.4,1,0.6C176.3,86.8,176.7,86.9,177.2,86.9z M174.4,77.8
				c0,0.3,0.1,0.7,0.2,1c0.1,0.3,0.3,0.6,0.5,0.9c0.2,0.2,0.5,0.4,0.9,0.6c0.4,0.1,0.8,0.2,1.3,0.2c0.5,0,0.9-0.1,1.3-0.2
				c0.4-0.1,0.7-0.3,0.9-0.6s0.4-0.5,0.5-0.9s0.2-0.6,0.2-1c0-0.4-0.1-0.7-0.2-1c-0.1-0.3-0.3-0.6-0.6-0.8c-0.2-0.2-0.5-0.4-0.9-0.5
				c-0.4-0.1-0.8-0.2-1.2-0.2c-0.5,0-0.9,0.1-1.2,0.2c-0.4,0.1-0.7,0.3-0.9,0.5c-0.2,0.2-0.4,0.5-0.6,0.8
				C174.4,77.1,174.4,77.4,174.4,77.8z"/>
			<path class="st3" d="M183.9,87.4v-9h0.5c0.2,0,0.2,0.1,0.3,0.2l0.1,1.3c0.3-0.5,0.7-0.9,1.2-1.2c0.5-0.3,1-0.5,1.5-0.5
				c0.7,0,1.2,0.2,1.6,0.6s0.7,0.9,0.8,1.6c0.1-0.4,0.3-0.7,0.5-1c0.2-0.3,0.4-0.5,0.7-0.7c0.3-0.2,0.5-0.3,0.8-0.4s0.6-0.1,0.9-0.1
				c0.4,0,0.8,0.1,1.2,0.2c0.4,0.1,0.7,0.4,0.9,0.7c0.2,0.3,0.4,0.6,0.6,1.1c0.1,0.4,0.2,0.9,0.2,1.4v5.7h-0.9v-5.7
				c0-0.9-0.2-1.5-0.6-2s-0.9-0.7-1.6-0.7c-0.3,0-0.6,0.1-0.9,0.2c-0.3,0.1-0.5,0.3-0.8,0.5c-0.2,0.2-0.4,0.5-0.5,0.8
				s-0.2,0.7-0.2,1.2v5.7h-0.9v-5.7c0-0.9-0.2-1.5-0.5-2c-0.3-0.5-0.9-0.7-1.5-0.7c-0.5,0-0.9,0.1-1.3,0.4s-0.8,0.7-1.1,1.2v6.8
				H183.9z"/>
			<path class="st3" d="M198.4,87.4v-9h0.5c0.2,0,0.2,0.1,0.3,0.2l0.1,1.3c0.3-0.5,0.7-0.9,1.2-1.2c0.4-0.3,1-0.5,1.5-0.5
				c0.7,0,1.2,0.2,1.6,0.6c0.4,0.4,0.7,0.9,0.8,1.6c0.1-0.4,0.3-0.7,0.5-1c0.2-0.3,0.4-0.5,0.7-0.7c0.3-0.2,0.5-0.3,0.8-0.4
				s0.6-0.1,0.9-0.1c0.4,0,0.8,0.1,1.2,0.2c0.4,0.1,0.7,0.4,0.9,0.7c0.2,0.3,0.4,0.6,0.6,1.1c0.1,0.4,0.2,0.9,0.2,1.4v5.7h-0.9v-5.7
				c0-0.9-0.2-1.5-0.6-2c-0.4-0.5-0.9-0.7-1.6-0.7c-0.3,0-0.6,0.1-0.9,0.2c-0.3,0.1-0.5,0.3-0.8,0.5c-0.2,0.2-0.4,0.5-0.5,0.8
				s-0.2,0.7-0.2,1.2v5.7h-0.9v-5.7c0-0.9-0.2-1.5-0.5-2s-0.9-0.7-1.5-0.7c-0.5,0-0.9,0.1-1.3,0.4s-0.8,0.7-1.1,1.2v6.8H198.4z"/>
		</g>
		<path id="Path_18981" class="st1" d="M144.6,43c17.9,29.5,14.1,63.7-3.6,85.6l2.6,1.6C161.9,108.3,165.1,70.5,144.6,43z"/>
		<g class="st2">
			<path class="st3" d="M116.6,75.7v0.4c0,0.1,0,0.2,0,0.3c0,0.1-0.1,0.1-0.1,0.2l-5.8,11.6c0,0.1-0.1,0.2-0.2,0.2
				c-0.1,0.1-0.2,0.1-0.3,0.1h-0.6l5.9-11.5c0.1-0.2,0.2-0.3,0.3-0.4h-7.3c-0.1,0-0.1,0-0.2-0.1c0,0-0.1-0.1-0.1-0.2v-0.5H116.6z"/>
			<path class="st3" d="M118.9,88.5v-9h0.5c0.1,0,0.2,0.1,0.3,0.2l0.1,1.3c0.3-0.5,0.7-0.9,1.2-1.2c0.4-0.3,1-0.5,1.5-0.5
				c0.7,0,1.2,0.2,1.6,0.6s0.7,0.9,0.8,1.6c0.1-0.4,0.3-0.7,0.5-1c0.2-0.3,0.4-0.5,0.7-0.7c0.3-0.2,0.5-0.3,0.8-0.4s0.6-0.1,0.9-0.1
				c0.4,0,0.8,0.1,1.2,0.2c0.4,0.1,0.7,0.4,0.9,0.7c0.2,0.3,0.4,0.6,0.6,1.1c0.1,0.4,0.2,0.9,0.2,1.4v5.7h-0.9v-5.7
				c0-0.9-0.2-1.5-0.6-2s-0.9-0.7-1.6-0.7c-0.3,0-0.6,0.1-0.9,0.2c-0.3,0.1-0.5,0.3-0.8,0.5c-0.2,0.2-0.4,0.5-0.5,0.8
				c-0.1,0.3-0.2,0.7-0.2,1.2v5.7h-0.9v-5.7c0-0.9-0.2-1.5-0.5-2s-0.9-0.7-1.5-0.7c-0.5,0-0.9,0.1-1.4,0.4c-0.4,0.3-0.8,0.7-1.1,1.2
				v6.8H118.9z"/>
			<path class="st3" d="M133.4,88.5v-9h0.5c0.1,0,0.2,0.1,0.3,0.2l0.1,1.3c0.3-0.5,0.7-0.9,1.2-1.2c0.4-0.3,1-0.5,1.5-0.5
				c0.7,0,1.2,0.2,1.6,0.6s0.7,0.9,0.8,1.6c0.1-0.4,0.3-0.7,0.5-1c0.2-0.3,0.4-0.5,0.7-0.7c0.3-0.2,0.5-0.3,0.8-0.4s0.6-0.1,0.9-0.1
				c0.4,0,0.8,0.1,1.2,0.2c0.4,0.1,0.7,0.4,0.9,0.7c0.2,0.3,0.4,0.6,0.6,1.1c0.1,0.4,0.2,0.9,0.2,1.4v5.7h-0.9v-5.7
				c0-0.9-0.2-1.5-0.6-2S142.7,80,142,80c-0.3,0-0.6,0.1-0.9,0.2c-0.3,0.1-0.5,0.3-0.8,0.5c-0.2,0.2-0.4,0.5-0.5,0.8
				c-0.1,0.3-0.2,0.7-0.2,1.2v5.7h-0.9v-5.7c0-0.9-0.2-1.5-0.5-2s-0.9-0.7-1.5-0.7c-0.5,0-0.9,0.1-1.4,0.4c-0.4,0.3-0.8,0.7-1.1,1.2
				v6.8H133.4z"/>
		</g>
		<g id="Group_10547" transform="translate(215 -200)">
			<path id="Path_18982" class="st1" d="M67.7,202.8c23.3,42.6,36.9,94.1-8.1,152L63,357C90.4,327.8,109.4,261.6,67.7,202.8z"/>
		</g>
	</g>
	<g id="Group_10548" transform="translate(0 -1.675)" class="st0">
		<path id="Path_18978" class="st1" d="M53.3,398.8C23,356.6,1.9,303.7,42.2,236.3l-3.9-1.8C12.9,269,1.4,341.8,53.3,398.8z"/>
		<g class="st2">
			<path class="st3" d="M33,312.3v0.7h-6.6v-0.7h2.9V302c0-0.2,0-0.4,0-0.6l-2.8,2.5c-0.1,0.1-0.2,0.1-0.3,0.1
				c-0.1,0-0.1-0.1-0.2-0.1l-0.3-0.4l3.7-3.2h0.7v12.1H33z"/>
			<path class="st3" d="M44.2,306.6c0,1.1-0.1,2.1-0.4,2.9c-0.2,0.8-0.6,1.5-1,2s-0.9,0.9-1.5,1.2c-0.6,0.3-1.1,0.4-1.8,0.4
				s-1.2-0.1-1.8-0.4c-0.6-0.3-1-0.7-1.4-1.2c-0.4-0.5-0.7-1.2-1-2c-0.2-0.8-0.4-1.8-0.4-2.9s0.1-2.1,0.4-2.9c0.2-0.8,0.6-1.5,1-2
				c0.4-0.5,0.9-0.9,1.4-1.2c0.6-0.3,1.1-0.4,1.8-0.4s1.2,0.1,1.8,0.4c0.6,0.3,1,0.7,1.5,1.2s0.7,1.2,1,2
				C44.1,304.5,44.2,305.5,44.2,306.6z M43.3,306.6c0-1-0.1-1.9-0.3-2.6c-0.2-0.7-0.5-1.3-0.8-1.8s-0.7-0.8-1.2-1
				c-0.4-0.2-0.9-0.3-1.4-0.3s-1,0.1-1.4,0.3c-0.4,0.2-0.8,0.6-1.2,1c-0.3,0.5-0.6,1.1-0.8,1.8c-0.2,0.7-0.3,1.6-0.3,2.6
				c0,1,0.1,1.9,0.3,2.7c0.2,0.7,0.5,1.3,0.8,1.8c0.3,0.5,0.7,0.8,1.2,1c0.4,0.2,0.9,0.3,1.4,0.3s1-0.1,1.4-0.3
				c0.4-0.2,0.8-0.6,1.2-1s0.6-1.1,0.8-1.8C43.2,308.5,43.3,307.7,43.3,306.6z"/>
			<path class="st3" d="M46.4,313v-9h0.5c0.1,0,0.2,0.1,0.3,0.2l0.1,1.3c0.3-0.5,0.7-0.9,1.2-1.2c0.4-0.3,1-0.5,1.5-0.5
				c0.7,0,1.2,0.2,1.6,0.6s0.7,0.9,0.8,1.6c0.1-0.4,0.3-0.7,0.5-1c0.2-0.3,0.4-0.5,0.7-0.7c0.3-0.2,0.5-0.3,0.8-0.4s0.6-0.1,0.9-0.1
				c0.4,0,0.8,0.1,1.2,0.2c0.4,0.1,0.7,0.4,0.9,0.7c0.2,0.3,0.4,0.6,0.6,1.1c0.1,0.4,0.2,0.9,0.2,1.4v5.7h-0.9v-5.7
				c0-0.9-0.2-1.5-0.6-2s-0.9-0.7-1.6-0.7c-0.3,0-0.6,0.1-0.9,0.2c-0.3,0.1-0.5,0.3-0.8,0.5c-0.2,0.2-0.4,0.5-0.5,0.8
				c-0.1,0.3-0.2,0.7-0.2,1.2v5.7h-0.9v-5.7c0-0.9-0.2-1.5-0.5-2s-0.9-0.7-1.5-0.7c-0.5,0-0.9,0.1-1.4,0.4c-0.4,0.3-0.8,0.7-1.1,1.2
				v6.8H46.4z"/>
			<path class="st3" d="M60.8,313v-9h0.5c0.1,0,0.2,0.1,0.3,0.2l0.1,1.3c0.3-0.5,0.7-0.9,1.2-1.2c0.4-0.3,1-0.5,1.5-0.5
				c0.7,0,1.2,0.2,1.6,0.6s0.7,0.9,0.8,1.6c0.1-0.4,0.3-0.7,0.5-1c0.2-0.3,0.4-0.5,0.7-0.7c0.3-0.2,0.5-0.3,0.8-0.4s0.6-0.1,0.9-0.1
				c0.4,0,0.8,0.1,1.2,0.2c0.4,0.1,0.7,0.4,0.9,0.7c0.2,0.3,0.4,0.6,0.6,1.1c0.1,0.4,0.2,0.9,0.2,1.4v5.7h-0.9v-5.7
				c0-0.9-0.2-1.5-0.6-2s-0.9-0.7-1.6-0.7c-0.3,0-0.6,0.1-0.9,0.2c-0.3,0.1-0.5,0.3-0.8,0.5c-0.2,0.2-0.4,0.5-0.5,0.8
				c-0.1,0.3-0.2,0.7-0.2,1.2v5.7h-0.9v-5.7c0-0.9-0.2-1.5-0.5-2s-0.9-0.7-1.5-0.7c-0.5,0-0.9,0.1-1.4,0.4c-0.4,0.3-0.8,0.7-1.1,1.2
				v6.8H60.8z"/>
		</g>
		<path id="Path_18979" class="st1" d="M214.9,429.1c-69.8-68.9-56.5-164.9-17.4-222.4l-4.2-1.6
			C174.4,232.1,123.7,346.2,214.9,429.1z"/>
		<g class="st2">
			<path class="st3" d="M186,312.3v0.7h-6.6v-0.7h2.9V302c0-0.2,0-0.4,0-0.6l-2.8,2.5c-0.1,0.1-0.2,0.1-0.3,0.1
				c-0.1,0-0.2-0.1-0.2-0.1l-0.3-0.4l3.7-3.2h0.7v12.1H186z"/>
			<path class="st3" d="M196.4,312.2c0.1,0,0.2,0,0.2,0.1c0.1,0.1,0.1,0.1,0.1,0.2v0.5h-8.2v-0.3c0-0.1,0-0.1,0-0.2
				c0-0.1,0.1-0.1,0.1-0.2l4.3-4.4c0.4-0.4,0.7-0.7,1-1.1c0.3-0.3,0.6-0.7,0.8-1c0.2-0.3,0.4-0.7,0.5-1.1c0.1-0.4,0.2-0.8,0.2-1.2
				c0-0.5-0.1-0.9-0.2-1.2s-0.4-0.6-0.6-0.9c-0.3-0.2-0.6-0.4-0.9-0.5c-0.3-0.1-0.7-0.2-1.1-0.2c-0.4,0-0.8,0.1-1.1,0.2
				c-0.3,0.1-0.6,0.3-0.9,0.5c-0.3,0.2-0.5,0.5-0.6,0.8c-0.2,0.3-0.3,0.6-0.4,1c0,0.1-0.1,0.2-0.2,0.3s-0.2,0.1-0.3,0l-0.4-0.1
				c0.1-0.5,0.2-1,0.5-1.5c0.2-0.4,0.5-0.8,0.8-1.1s0.7-0.5,1.2-0.7c0.5-0.2,0.9-0.2,1.5-0.2c0.5,0,0.9,0.1,1.4,0.2
				c0.4,0.1,0.8,0.4,1.2,0.6c0.3,0.3,0.6,0.6,0.8,1.1c0.2,0.4,0.3,0.9,0.3,1.5c0,0.5-0.1,0.9-0.2,1.3c-0.1,0.4-0.3,0.8-0.6,1.2
				s-0.5,0.7-0.9,1.1c-0.3,0.4-0.7,0.7-1,1.1l-4,4.1c0.2,0,0.4-0.1,0.6-0.1c0.2,0,0.4,0,0.6,0H196.4z"/>
			<path class="st3" d="M199.4,313v-9h0.5c0.2,0,0.2,0.1,0.3,0.2l0.1,1.3c0.3-0.5,0.7-0.9,1.2-1.2c0.5-0.3,1-0.5,1.5-0.5
				c0.7,0,1.2,0.2,1.6,0.6s0.7,0.9,0.8,1.6c0.1-0.4,0.3-0.7,0.5-1c0.2-0.3,0.4-0.5,0.7-0.7c0.3-0.2,0.5-0.3,0.8-0.4s0.6-0.1,0.9-0.1
				c0.4,0,0.8,0.1,1.2,0.2c0.4,0.1,0.7,0.4,0.9,0.7c0.2,0.3,0.4,0.6,0.6,1.1c0.1,0.4,0.2,0.9,0.2,1.4v5.7h-0.9v-5.7
				c0-0.9-0.2-1.5-0.6-2s-0.9-0.7-1.6-0.7c-0.3,0-0.6,0.1-0.9,0.2c-0.3,0.1-0.5,0.3-0.8,0.5c-0.2,0.2-0.4,0.5-0.5,0.8
				s-0.2,0.7-0.2,1.2v5.7h-0.9v-5.7c0-0.9-0.2-1.5-0.5-2c-0.3-0.5-0.9-0.7-1.5-0.7c-0.5,0-0.9,0.1-1.3,0.4s-0.8,0.7-1.1,1.2v6.8
				H199.4z"/>
			<path class="st3" d="M213.8,313v-9h0.5c0.2,0,0.2,0.1,0.3,0.2l0.1,1.3c0.3-0.5,0.7-0.9,1.2-1.2c0.4-0.3,1-0.5,1.5-0.5
				c0.7,0,1.2,0.2,1.6,0.6c0.4,0.4,0.7,0.9,0.8,1.6c0.1-0.4,0.3-0.7,0.5-1c0.2-0.3,0.4-0.5,0.7-0.7c0.3-0.2,0.5-0.3,0.8-0.4
				s0.6-0.1,0.9-0.1c0.4,0,0.8,0.1,1.2,0.2c0.4,0.1,0.7,0.4,0.9,0.7c0.2,0.3,0.4,0.6,0.6,1.1c0.1,0.4,0.2,0.9,0.2,1.4v5.7h-0.9v-5.7
				c0-0.9-0.2-1.5-0.6-2c-0.4-0.5-0.9-0.7-1.6-0.7c-0.3,0-0.6,0.1-0.9,0.2c-0.3,0.1-0.5,0.3-0.8,0.5c-0.2,0.2-0.4,0.5-0.5,0.8
				s-0.2,0.7-0.2,1.2v5.7h-0.9v-5.7c0-0.9-0.2-1.5-0.5-2s-0.9-0.7-1.5-0.7c-0.5,0-0.9,0.1-1.3,0.4s-0.8,0.7-1.1,1.2v6.8H213.8z"/>
		</g>
		<path id="Path_18983" class="st1" d="M129.5,417.3c-50.2-52.6-58.9-129.8-8-198.3l-4.1-2.4C82.6,255,58.2,355.4,129.5,417.3z"/>
		<g class="st2">
			<path class="st3" d="M106,312.3v0.7h-6.6v-0.7h2.9V302c0-0.2,0-0.4,0-0.6l-2.8,2.5c-0.1,0.1-0.2,0.1-0.3,0.1
				c-0.1,0-0.1-0.1-0.2-0.1l-0.3-0.4l3.7-3.2h0.7v12.1H106z"/>
			<path class="st3" d="M116.4,312.3v0.7h-6.6v-0.7h2.9V302c0-0.2,0-0.4,0-0.6l-2.8,2.5c-0.1,0.1-0.2,0.1-0.3,0.1
				c-0.1,0-0.1-0.1-0.2-0.1l-0.3-0.4l3.7-3.2h0.7v12.1H116.4z"/>
			<path class="st3" d="M119.4,313v-9h0.5c0.1,0,0.2,0.1,0.3,0.2l0.1,1.3c0.3-0.5,0.7-0.9,1.2-1.2c0.4-0.3,1-0.5,1.5-0.5
				c0.7,0,1.2,0.2,1.6,0.6s0.7,0.9,0.8,1.6c0.1-0.4,0.3-0.7,0.5-1c0.2-0.3,0.4-0.5,0.7-0.7c0.3-0.2,0.5-0.3,0.8-0.4s0.6-0.1,0.9-0.1
				c0.4,0,0.8,0.1,1.2,0.2c0.4,0.1,0.7,0.4,0.9,0.7c0.2,0.3,0.4,0.6,0.6,1.1c0.1,0.4,0.2,0.9,0.2,1.4v5.7h-0.9v-5.7
				c0-0.9-0.2-1.5-0.6-2s-0.9-0.7-1.6-0.7c-0.3,0-0.6,0.1-0.9,0.2c-0.3,0.1-0.5,0.3-0.8,0.5c-0.2,0.2-0.4,0.5-0.5,0.8
				c-0.1,0.3-0.2,0.7-0.2,1.2v5.7h-0.9v-5.7c0-0.9-0.2-1.5-0.5-2s-0.9-0.7-1.5-0.7c-0.5,0-0.9,0.1-1.4,0.4c-0.4,0.3-0.8,0.7-1.1,1.2
				v6.8H119.4z"/>
			<path class="st3" d="M133.8,313v-9h0.5c0.1,0,0.2,0.1,0.3,0.2l0.1,1.3c0.3-0.5,0.7-0.9,1.2-1.2c0.4-0.3,1-0.5,1.5-0.5
				c0.7,0,1.2,0.2,1.6,0.6s0.7,0.9,0.8,1.6c0.1-0.4,0.3-0.7,0.5-1c0.2-0.3,0.4-0.5,0.7-0.7c0.3-0.2,0.5-0.3,0.8-0.4s0.6-0.1,0.9-0.1
				c0.4,0,0.8,0.1,1.2,0.2c0.4,0.1,0.7,0.4,0.9,0.7c0.2,0.3,0.4,0.6,0.6,1.1c0.1,0.4,0.2,0.9,0.2,1.4v5.7h-0.9v-5.7
				c0-0.9-0.2-1.5-0.6-2s-0.9-0.7-1.6-0.7c-0.3,0-0.6,0.1-0.9,0.2c-0.3,0.1-0.5,0.3-0.8,0.5c-0.2,0.2-0.4,0.5-0.5,0.8
				c-0.1,0.3-0.2,0.7-0.2,1.2v5.7h-0.9v-5.7c0-0.9-0.2-1.5-0.5-2s-0.9-0.7-1.5-0.7c-0.5,0-0.9,0.1-1.4,0.4c-0.4,0.3-0.8,0.7-1.1,1.2
				v6.8H133.8z"/>
		</g>
		<path id="Path_18984" class="st1" d="M315.1,442.8c-104.7-83.7-71.1-192.4-23.5-249.2l-4.2-2.2C262,221.5,186.4,344.9,315.1,442.8
			z"/>
		<g class="st2">
			<path class="st3" d="M262,312.3v0.7h-6.6v-0.7h2.9V302c0-0.2,0-0.4,0-0.6l-2.8,2.5c-0.1,0.1-0.2,0.1-0.3,0.1
				c-0.1,0-0.2-0.1-0.2-0.1l-0.3-0.4l3.7-3.2h0.7v12.1H262z"/>
			<path class="st3" d="M264.8,303.6c0.1-0.5,0.2-1,0.5-1.5c0.2-0.4,0.5-0.8,0.8-1.1c0.3-0.3,0.7-0.5,1.2-0.7
				c0.4-0.2,0.9-0.2,1.5-0.2c0.5,0,0.9,0.1,1.4,0.2c0.4,0.1,0.8,0.3,1.1,0.6c0.3,0.3,0.6,0.6,0.8,1c0.2,0.4,0.3,0.9,0.3,1.4
				c0,0.4-0.1,0.8-0.2,1.1s-0.3,0.6-0.5,0.9s-0.5,0.5-0.8,0.6c-0.3,0.2-0.6,0.3-1,0.4c0.9,0.2,1.6,0.5,2.1,1.1
				c0.5,0.5,0.7,1.2,0.7,2.1c0,0.5-0.1,1-0.3,1.5c-0.2,0.4-0.5,0.8-0.9,1.2c-0.4,0.3-0.8,0.6-1.3,0.8c-0.5,0.2-1,0.3-1.6,0.3
				c-0.7,0-1.3-0.1-1.8-0.3s-0.9-0.4-1.2-0.8c-0.3-0.3-0.6-0.7-0.7-1c-0.2-0.4-0.3-0.8-0.4-1.2l0.3-0.1c0.1,0,0.2-0.1,0.3,0
				s0.2,0.1,0.2,0.2c0,0.1,0.1,0.2,0.1,0.3c0.1,0.2,0.1,0.3,0.2,0.5c0.1,0.2,0.2,0.4,0.4,0.6c0.2,0.2,0.3,0.4,0.6,0.5
				c0.2,0.2,0.5,0.3,0.8,0.4c0.3,0.1,0.7,0.2,1.2,0.2c0.5,0,1-0.1,1.4-0.3c0.4-0.2,0.7-0.4,1-0.7c0.3-0.3,0.5-0.6,0.6-0.9
				s0.2-0.7,0.2-1c0-0.4-0.1-0.8-0.2-1.1c-0.1-0.3-0.3-0.6-0.6-0.9c-0.3-0.2-0.7-0.4-1.1-0.6c-0.5-0.1-1.1-0.2-1.7-0.2v-0.6
				c0.6,0,1-0.1,1.5-0.2s0.8-0.3,1.1-0.6c0.3-0.2,0.5-0.5,0.6-0.8s0.2-0.7,0.2-1.1c0-0.5-0.1-0.8-0.2-1.2c-0.2-0.3-0.4-0.6-0.6-0.8
				c-0.3-0.2-0.5-0.4-0.9-0.5c-0.3-0.1-0.7-0.2-1.1-0.2c-0.4,0-0.8,0.1-1.1,0.2c-0.3,0.1-0.6,0.3-0.9,0.5c-0.3,0.2-0.5,0.5-0.7,0.8
				c-0.2,0.3-0.3,0.6-0.4,1c0,0.1-0.1,0.2-0.2,0.3c-0.1,0-0.2,0.1-0.3,0L264.8,303.6z"/>
			<path class="st3" d="M275.4,313v-9h0.5c0.2,0,0.2,0.1,0.3,0.2l0.1,1.3c0.3-0.5,0.7-0.9,1.2-1.2c0.5-0.3,1-0.5,1.5-0.5
				c0.7,0,1.2,0.2,1.6,0.6s0.7,0.9,0.8,1.6c0.1-0.4,0.3-0.7,0.5-1c0.2-0.3,0.4-0.5,0.7-0.7c0.3-0.2,0.5-0.3,0.8-0.4s0.6-0.1,0.9-0.1
				c0.4,0,0.8,0.1,1.2,0.2c0.4,0.1,0.7,0.4,0.9,0.7c0.2,0.3,0.4,0.6,0.6,1.1c0.1,0.4,0.2,0.9,0.2,1.4v5.7h-0.9v-5.7
				c0-0.9-0.2-1.5-0.6-2s-0.9-0.7-1.6-0.7c-0.3,0-0.6,0.1-0.9,0.2c-0.3,0.1-0.5,0.3-0.8,0.5c-0.2,0.2-0.4,0.5-0.5,0.8
				s-0.2,0.7-0.2,1.2v5.7h-0.9v-5.7c0-0.9-0.2-1.5-0.5-2c-0.3-0.5-0.9-0.7-1.5-0.7c-0.5,0-0.9,0.1-1.3,0.4s-0.8,0.7-1.1,1.2v6.8
				H275.4z"/>
			<path class="st3" d="M289.8,313v-9h0.5c0.2,0,0.2,0.1,0.3,0.2l0.1,1.3c0.3-0.5,0.7-0.9,1.2-1.2c0.4-0.3,1-0.5,1.5-0.5
				c0.7,0,1.2,0.2,1.6,0.6c0.4,0.4,0.7,0.9,0.8,1.6c0.1-0.4,0.3-0.7,0.5-1c0.2-0.3,0.4-0.5,0.7-0.7c0.3-0.2,0.5-0.3,0.8-0.4
				s0.6-0.1,0.9-0.1c0.4,0,0.8,0.1,1.2,0.2c0.4,0.1,0.7,0.4,0.9,0.7c0.2,0.3,0.4,0.6,0.6,1.1c0.1,0.4,0.2,0.9,0.2,1.4v5.7h-0.9v-5.7
				c0-0.9-0.2-1.5-0.6-2c-0.4-0.5-0.9-0.7-1.6-0.7c-0.3,0-0.6,0.1-0.9,0.2c-0.3,0.1-0.5,0.3-0.8,0.5c-0.2,0.2-0.4,0.5-0.5,0.8
				s-0.2,0.7-0.2,1.2v5.7h-0.9v-5.7c0-0.9-0.2-1.5-0.5-2s-0.9-0.7-1.5-0.7c-0.5,0-0.9,0.1-1.3,0.4s-0.8,0.7-1.1,1.2v6.8H289.8z"/>
		</g>
	</g>
	<g id="Group_10550" transform="translate(0 11)" class="st0">
		<path id="Path_18980" class="st1" d="M64.2,442.7c71.3,98.4,27.6,216-16.7,270.7l3.6,2.6C76.7,685.3,152.7,556.2,64.2,442.7z"/>
		<g class="st2">
			<path class="st3" d="M32,583.3v0.7h-6.6v-0.7h2.9V573c0-0.2,0-0.4,0-0.6l-2.8,2.5c-0.1,0.1-0.2,0.1-0.3,0.1
				c-0.1,0-0.1-0.1-0.2-0.1l-0.3-0.4l3.7-3.2h0.7v12.1H32z"/>
			<path class="st3" d="M43.3,579.7v0.5c0,0.1,0,0.1-0.1,0.2c0,0-0.1,0.1-0.2,0.1H41v3.7h-0.8v-3.7h-6c-0.1,0-0.2,0-0.2-0.1
				c0,0-0.1-0.1-0.1-0.2l-0.1-0.4l6.4-8.5H41v8.4H43.3z M40.2,579.7V573c0-0.1,0-0.2,0-0.3s0-0.2,0-0.4l-5.5,7.4H40.2z"/>
			<path class="st3" d="M45.4,584v-9h0.5c0.1,0,0.2,0.1,0.3,0.2l0.1,1.3c0.3-0.5,0.7-0.9,1.2-1.2c0.4-0.3,1-0.5,1.5-0.5
				c0.7,0,1.2,0.2,1.6,0.6s0.7,0.9,0.8,1.6c0.1-0.4,0.3-0.7,0.5-1c0.2-0.3,0.4-0.5,0.7-0.7c0.3-0.2,0.5-0.3,0.8-0.4s0.6-0.1,0.9-0.1
				c0.4,0,0.8,0.1,1.2,0.2c0.4,0.1,0.7,0.4,0.9,0.7c0.2,0.3,0.4,0.6,0.6,1.1c0.1,0.4,0.2,0.9,0.2,1.4v5.7h-0.9v-5.7
				c0-0.9-0.2-1.5-0.6-2s-0.9-0.7-1.6-0.7c-0.3,0-0.6,0.1-0.9,0.2c-0.3,0.1-0.5,0.3-0.8,0.5c-0.2,0.2-0.4,0.5-0.5,0.8
				c-0.1,0.3-0.2,0.7-0.2,1.2v5.7h-0.9v-5.7c0-0.9-0.2-1.5-0.5-2s-0.9-0.7-1.5-0.7c-0.5,0-0.9,0.1-1.4,0.4c-0.4,0.3-0.8,0.7-1.1,1.2
				v6.8H45.4z"/>
			<path class="st3" d="M59.8,584v-9h0.5c0.1,0,0.2,0.1,0.3,0.2l0.1,1.3c0.3-0.5,0.7-0.9,1.2-1.2c0.4-0.3,1-0.5,1.5-0.5
				c0.7,0,1.2,0.2,1.6,0.6s0.7,0.9,0.8,1.6c0.1-0.4,0.3-0.7,0.5-1c0.2-0.3,0.4-0.5,0.7-0.7c0.3-0.2,0.5-0.3,0.8-0.4s0.6-0.1,0.9-0.1
				c0.4,0,0.8,0.1,1.2,0.2c0.4,0.1,0.7,0.4,0.9,0.7c0.2,0.3,0.4,0.6,0.6,1.1c0.1,0.4,0.2,0.9,0.2,1.4v5.7h-0.9v-5.7
				c0-0.9-0.2-1.5-0.6-2s-0.9-0.7-1.6-0.7c-0.3,0-0.6,0.1-0.9,0.2c-0.3,0.1-0.5,0.3-0.8,0.5c-0.2,0.2-0.4,0.5-0.5,0.8
				c-0.1,0.3-0.2,0.7-0.2,1.2v5.7h-0.9v-5.7c0-0.9-0.2-1.5-0.5-2s-0.9-0.7-1.5-0.7c-0.5,0-0.9,0.1-1.4,0.4c-0.4,0.3-0.8,0.7-1.1,1.2
				v6.8H59.8z"/>
		</g>
		<path id="Path_18985" class="st1" d="M145.5,438c75,106.4,39,211.4-30.9,281.3l3.5,2.5C157.2,687.9,243.9,560.7,145.5,438z"/>
		<g class="st2">
			<path class="st3" d="M132,583.3v0.7h-6.6v-0.7h2.9V573c0-0.2,0-0.4,0-0.6l-2.8,2.5c-0.1,0.1-0.2,0.1-0.3,0.1
				c-0.1,0-0.1-0.1-0.2-0.1l-0.3-0.4l3.7-3.2h0.7v12.1H132z"/>
			<path class="st3" d="M136.2,576.3c0.4-0.1,0.8-0.2,1.1-0.2c0.4,0,0.7-0.1,1-0.1c0.7,0,1.3,0.1,1.8,0.3c0.5,0.2,0.9,0.5,1.3,0.8
				c0.3,0.3,0.6,0.7,0.8,1.2c0.2,0.5,0.3,1,0.3,1.5c0,0.7-0.1,1.3-0.3,1.8s-0.5,1-0.9,1.4s-0.9,0.7-1.4,0.9
				c-0.5,0.2-1.1,0.3-1.7,0.3c-0.3,0-0.7,0-1-0.1c-0.3-0.1-0.6-0.1-0.9-0.3c-0.3-0.1-0.5-0.2-0.8-0.4c-0.2-0.1-0.4-0.3-0.6-0.4
				l0.3-0.4c0.1-0.1,0.1-0.1,0.3-0.1c0.1,0,0.2,0,0.3,0.1c0.1,0.1,0.3,0.2,0.6,0.3s0.5,0.2,0.8,0.3c0.3,0.1,0.7,0.1,1.1,0.1
				c0.5,0,1-0.1,1.4-0.2c0.4-0.2,0.8-0.4,1.1-0.7c0.3-0.3,0.6-0.7,0.7-1.1c0.2-0.4,0.3-0.9,0.3-1.5c0-0.5-0.1-0.9-0.2-1.3
				c-0.1-0.4-0.3-0.7-0.6-1c-0.3-0.3-0.6-0.5-1-0.6c-0.4-0.2-0.9-0.2-1.5-0.2c-0.3,0-0.7,0-1.1,0.1c-0.4,0.1-0.8,0.1-1.2,0.3
				l-0.5-0.2l1-5.6h5.7v0.4c0,0.1,0,0.2-0.1,0.3s-0.2,0.1-0.4,0.1H137L136.2,576.3z"/>
			<path class="st3" d="M145.4,584v-9h0.5c0.1,0,0.2,0.1,0.3,0.2l0.1,1.3c0.3-0.5,0.7-0.9,1.2-1.2c0.4-0.3,1-0.5,1.5-0.5
				c0.7,0,1.2,0.2,1.6,0.6s0.7,0.9,0.8,1.6c0.1-0.4,0.3-0.7,0.5-1c0.2-0.3,0.4-0.5,0.7-0.7c0.3-0.2,0.5-0.3,0.8-0.4s0.6-0.1,0.9-0.1
				c0.4,0,0.8,0.1,1.2,0.2c0.4,0.1,0.7,0.4,0.9,0.7c0.2,0.3,0.4,0.6,0.6,1.1c0.1,0.4,0.2,0.9,0.2,1.4v5.7h-0.9v-5.7
				c0-0.9-0.2-1.5-0.6-2s-0.9-0.7-1.6-0.7c-0.3,0-0.6,0.1-0.9,0.2c-0.3,0.1-0.5,0.3-0.8,0.5c-0.2,0.2-0.4,0.5-0.5,0.8
				c-0.1,0.3-0.2,0.7-0.2,1.2v5.7h-0.9v-5.7c0-0.9-0.2-1.5-0.5-2s-0.9-0.7-1.5-0.7c-0.5,0-0.9,0.1-1.4,0.4c-0.4,0.3-0.8,0.7-1.1,1.2
				v6.8H145.4z"/>
			<path class="st3" d="M159.8,584v-9h0.5c0.1,0,0.2,0.1,0.3,0.2l0.1,1.3c0.3-0.5,0.7-0.9,1.2-1.2c0.4-0.3,1-0.5,1.5-0.5
				c0.7,0,1.2,0.2,1.6,0.6c0.4,0.4,0.7,0.9,0.8,1.6c0.1-0.4,0.3-0.7,0.5-1c0.2-0.3,0.4-0.5,0.7-0.7c0.3-0.2,0.5-0.3,0.8-0.4
				s0.6-0.1,0.9-0.1c0.4,0,0.8,0.1,1.2,0.2c0.4,0.1,0.7,0.4,0.9,0.7c0.2,0.3,0.4,0.6,0.6,1.1c0.1,0.4,0.2,0.9,0.2,1.4v5.7h-0.9v-5.7
				c0-0.9-0.2-1.5-0.6-2c-0.4-0.5-0.9-0.7-1.6-0.7c-0.3,0-0.6,0.1-0.9,0.2c-0.3,0.1-0.5,0.3-0.8,0.5c-0.2,0.2-0.4,0.5-0.5,0.8
				s-0.2,0.7-0.2,1.2v5.7h-0.9v-5.7c0-0.9-0.2-1.5-0.5-2s-0.9-0.7-1.5-0.7c-0.5,0-0.9,0.1-1.4,0.4c-0.4,0.3-0.8,0.7-1.1,1.2v6.8
				H159.8z"/>
		</g>
	</g>
</g>
<g class="st2">
	<path class="st3" d="M252.7,81.4c0.2-0.3,0.3-0.5,0.5-0.7s0.3-0.4,0.4-0.7c-0.3,0.4-0.8,0.7-1.3,0.9s-1,0.3-1.6,0.3
		c-0.5,0-1-0.1-1.4-0.3s-0.8-0.4-1.1-0.7c-0.3-0.3-0.6-0.7-0.8-1.1c-0.2-0.4-0.3-0.9-0.3-1.5c0-0.5,0.1-1.1,0.3-1.5
		c0.2-0.5,0.5-0.9,0.8-1.2s0.8-0.6,1.3-0.8c0.5-0.2,1-0.3,1.6-0.3c0.6,0,1.1,0.1,1.6,0.3c0.5,0.2,0.9,0.5,1.2,0.8
		c0.3,0.4,0.6,0.8,0.8,1.3c0.2,0.5,0.3,1,0.3,1.6c0,0.3,0,0.6-0.1,0.9c-0.1,0.3-0.2,0.6-0.3,0.9s-0.3,0.6-0.5,0.9
		c-0.2,0.3-0.4,0.7-0.7,1l-3.3,4.9c-0.1,0.1-0.2,0.2-0.4,0.2H249L252.7,81.4z M251,80.5c0.5,0,1-0.1,1.4-0.3c0.4-0.2,0.7-0.4,1-0.7
		c0.3-0.3,0.5-0.6,0.6-0.9s0.2-0.7,0.2-1.1c0-0.5-0.1-0.9-0.2-1.3c-0.1-0.4-0.4-0.7-0.6-1c-0.3-0.3-0.6-0.5-1-0.6s-0.8-0.2-1.2-0.2
		c-0.5,0-0.9,0.1-1.3,0.2c-0.4,0.2-0.7,0.4-1,0.6c-0.3,0.3-0.5,0.6-0.7,1s-0.2,0.8-0.2,1.2c0,0.5,0.1,0.9,0.2,1.3
		c0.1,0.4,0.3,0.7,0.6,1c0.3,0.3,0.6,0.5,0.9,0.6S250.6,80.5,251,80.5z"/>
	<path class="st3" d="M257.9,86.6v-9h0.5c0.2,0,0.2,0.1,0.3,0.2l0.1,1.3c0.3-0.5,0.7-0.9,1.2-1.2c0.5-0.3,1-0.5,1.5-0.5
		c0.7,0,1.2,0.2,1.6,0.6s0.7,0.9,0.8,1.6c0.1-0.4,0.3-0.7,0.5-1c0.2-0.3,0.4-0.5,0.7-0.7c0.3-0.2,0.5-0.3,0.8-0.4s0.6-0.1,0.9-0.1
		c0.4,0,0.8,0.1,1.2,0.2c0.4,0.1,0.7,0.4,0.9,0.7c0.2,0.3,0.4,0.6,0.6,1.1c0.1,0.4,0.2,0.9,0.2,1.4v5.7h-0.9v-5.7
		c0-0.9-0.2-1.5-0.6-2s-0.9-0.7-1.6-0.7c-0.3,0-0.6,0.1-0.9,0.2c-0.3,0.1-0.5,0.3-0.8,0.5c-0.2,0.2-0.4,0.5-0.5,0.8
		s-0.2,0.7-0.2,1.2v5.7h-0.9v-5.7c0-0.9-0.2-1.5-0.5-2c-0.3-0.5-0.9-0.7-1.5-0.7c-0.5,0-0.9,0.1-1.3,0.4s-0.8,0.7-1.1,1.2v6.8H257.9
		z"/>
	<path class="st3" d="M272.4,86.6v-9h0.5c0.2,0,0.2,0.1,0.3,0.2l0.1,1.3c0.3-0.5,0.7-0.9,1.2-1.2c0.4-0.3,1-0.5,1.5-0.5
		c0.7,0,1.2,0.2,1.6,0.6c0.4,0.4,0.7,0.9,0.8,1.6c0.1-0.4,0.3-0.7,0.5-1c0.2-0.3,0.4-0.5,0.7-0.7c0.3-0.2,0.5-0.3,0.8-0.4
		s0.6-0.1,0.9-0.1c0.4,0,0.8,0.1,1.2,0.2c0.4,0.1,0.7,0.4,0.9,0.7c0.2,0.3,0.4,0.6,0.6,1.1c0.1,0.4,0.2,0.9,0.2,1.4v5.7h-0.9v-5.7
		c0-0.9-0.2-1.5-0.6-2c-0.4-0.5-0.9-0.7-1.6-0.7c-0.3,0-0.6,0.1-0.9,0.2c-0.3,0.1-0.5,0.3-0.8,0.5c-0.2,0.2-0.4,0.5-0.5,0.8
		s-0.2,0.7-0.2,1.2v5.7h-0.9v-5.7c0-0.9-0.2-1.5-0.5-2s-0.9-0.7-1.5-0.7c-0.5,0-0.9,0.1-1.3,0.4s-0.8,0.7-1.1,1.2v6.8H272.4z"/>
</g>
</svg>
