<svg xmlns="http://www.w3.org/2000/svg" xmlns:xlink="http://www.w3.org/1999/xlink" viewBox="-17628 11598 289 475">
  <defs>
    <style>
      .cls-1 {
        fill: #fff;
      }

      .cls-1, .cls-4 {
        stroke: #95989a;
      }

      .cls-2 {
        clip-path: url(#clip-path);
      }

      .cls-3 {
        fill: #4d4d4d;
        font-size: 22px;
        font-family: Lato-Thin, Lato;
        font-weight: 200;
      }

      .cls-4 {
        fill: none;
        fill-rule: evenodd;
      }
    </style>
    <clipPath id="clip-path">
      <rect id="Rectangle_857" data-name="Rectangle 857" class="cls-1" width="289" height="475" transform="translate(11 24)"/>
    </clipPath>
  </defs>
  <g id="Mask_Group_328" data-name="Mask Group 328" class="cls-2" transform="translate(-17639 11574)">
    <g id="Group_10543" data-name="Group 10543">
      <text id="_.25mm" data-name=".25mm" class="cls-3" transform="translate(33 88)"><tspan x="0" y="22">.25mm</tspan></text>
      <text id="_.15mm" data-name=".15mm" class="cls-3" transform="translate(33 247)"><tspan x="0" y="22">.15mm</tspan></text>
      <text id="_.07mm" data-name=".07mm" class="cls-3" transform="translate(33 406)"><tspan x="0" y="22">.07mm</tspan></text>
      <text id="_.18mm" data-name=".18mm" class="cls-3" transform="translate(229 88)"><tspan x="0" y="22">.18mm</tspan></text>
      <text id="_.10mm" data-name=".10mm" class="cls-3" transform="translate(229 247)"><tspan x="0" y="22">.10mm</tspan></text>
      <text id="_.05mm" data-name=".05mm" class="cls-3" transform="translate(229 406)"><tspan x="0" y="22">.05mm</tspan></text>
      <path id="Path_18959" data-name="Path 18959" class="cls-4" d="M111.884,0C93.863,41.3,59.7,70.585,0,66.079v2.253C39.8,72.462,91.985,55.567,111.884,0Z" transform="translate(96.998 66.536) rotate(120)"/>
      <path id="Path_18972" data-name="Path 18972" class="cls-4" d="M111.884,0C93.863,41.3,59.7,70.585,0,66.079v2.253C39.8,72.462,91.985,55.567,111.884,0Z" transform="translate(96.998 225.536) rotate(120)"/>
      <path id="Path_18975" data-name="Path 18975" class="cls-4" d="M111.884,0C93.863,41.3,59.7,70.585,0,66.079v2.253C39.8,72.462,91.985,55.567,111.884,0Z" transform="translate(96.998 384.536) rotate(120)"/>
      <g id="Group_10540" data-name="Group 10540" transform="translate(-6 -32)">
        <text id="_.20mm" data-name=".20mm" class="cls-3" transform="translate(136 120)"><tspan x="0" y="22">.20mm</tspan></text>
        <path id="Path_18968" data-name="Path 18968" class="cls-4" d="M111.884,0C93.863,41.3,59.7,70.585,0,66.079v2.253C39.8,72.462,91.985,55.567,111.884,0Z" transform="translate(202.998 98.536) rotate(120)"/>
      </g>
      <g id="Group_10541" data-name="Group 10541" transform="translate(-6 127)">
        <text id="_.12mm" data-name=".12mm" class="cls-3" transform="translate(136 120)"><tspan x="0" y="22">.12mm</tspan></text>
        <path id="Path_18971" data-name="Path 18971" class="cls-4" d="M111.884,0C93.863,41.3,59.7,70.585,0,66.079v2.253C39.8,72.462,91.985,55.567,111.884,0Z" transform="translate(202.998 98.536) rotate(120)"/>
      </g>
      <g id="Group_10542" data-name="Group 10542" transform="translate(-6 286)">
        <text id="_.06mm" data-name=".06mm" class="cls-3" transform="translate(136 120)"><tspan x="0" y="22">.06mm</tspan></text>
        <path id="Path_18974" data-name="Path 18974" class="cls-4" d="M111.884,0C93.863,41.3,59.7,70.585,0,66.079v2.253C39.8,72.462,91.985,55.567,111.884,0Z" transform="translate(202.998 98.536) rotate(120)"/>
      </g>
      <path id="Path_18969" data-name="Path 18969" class="cls-4" d="M111.884,0C93.863,41.3,59.7,70.585,0,66.079v2.253C39.8,72.462,91.985,55.567,111.884,0Z" transform="translate(295.998 66.536) rotate(120)"/>
      <path id="Path_18970" data-name="Path 18970" class="cls-4" d="M111.884,0C93.863,41.3,59.7,70.585,0,66.079v2.253C39.8,72.462,91.985,55.567,111.884,0Z" transform="translate(295.998 225.536) rotate(120)"/>
      <path id="Path_18973" data-name="Path 18973" class="cls-4" d="M111.884,0C93.863,41.3,59.7,70.585,0,66.079v2.253C39.8,72.462,91.985,55.567,111.884,0Z" transform="translate(295.998 384.536) rotate(120)"/>
    </g>
  </g>
</svg>
